<?xml version="1.0" encoding="utf-8"?>
<!-- Generator: Adobe Illustrator 16.0.0, SVG Export Plug-In . SVG Version: 6.00 Build 0)  -->
<!DOCTYPE svg PUBLIC "-//W3C//DTD SVG 1.1//EN" "http://www.w3.org/Graphics/SVG/1.1/DTD/svg11.dtd">
<svg version="1.1" id="Layer_1" xmlns="http://www.w3.org/2000/svg" xmlns:xlink="http://www.w3.org/1999/xlink" x="0px" y="0px"
	 width="64.083px" height="101.334px" viewBox="0 0 64.083 101.334" enable-background="new 0 0 64.083 101.334"
	 xml:space="preserve">
<path d="M3.781,50.42c0-1.78,0.68-3.562,2.038-4.92L48.568,2.75c2.721-2.719,7.128-2.719,9.848,0c2.717,2.719,2.717,7.127,0,9.847
	L20.59,50.42l37.826,37.826c2.719,2.719,2.719,7.127,0,9.846c-2.718,2.72-7.127,2.72-9.847,0L5.82,55.344
	C4.461,53.984,3.781,52.203,3.781,50.42"/>
</svg>
