<?xml version="1.0" encoding="utf-8"?>
<!-- Generator: Adobe Illustrator 16.0.0, SVG Export Plug-In . SVG Version: 6.00 Build 0)  -->
<!DOCTYPE svg PUBLIC "-//W3C//DTD SVG 1.1//EN" "http://www.w3.org/Graphics/SVG/1.1/DTD/svg11.dtd">
<svg version="1.1" id="Layer_1" xmlns="http://www.w3.org/2000/svg" xmlns:xlink="http://www.w3.org/1999/xlink" x="0px" y="0px"
	 width="83.25px" height="82.25px" viewBox="0 0 83.25 82.25" enable-background="new 0 0 83.25 82.25" xml:space="preserve">
<path d="M79.969,1.727c-0.791-0.852-2.063-1.045-3.02-0.385L4.032,51.832c-0.661,0.457-1.03,1.229-0.974,2.031
	c0.057,0.803,0.533,1.516,1.252,1.875l16.697,8.35l6.496,15.158c0.313,0.729,0.981,1.242,1.766,1.354
	c0.108,0.017,0.218,0.024,0.326,0.024c0.672,0,1.315-0.299,1.752-0.825l6.823-8.242l18.869,9.16
	c0.313,0.151,0.653,0.229,0.993,0.229c0.322,0,0.645-0.07,0.944-0.205c0.616-0.281,1.075-0.824,1.253-1.479L80.442,4.125
	C80.607,3.513,80.706,2.523,79.969,1.727 M61.989,17.236L22.271,59.629L9.781,53.386L61.989,17.236z M30.219,74.029l-4.771-11.134
	l39.361-42.015L36.405,66.675c-0.147,0.106-0.287,0.228-0.409,0.376L30.219,74.029z M56.551,75.422l-15.539-7.543l31.021-50.016
	L56.551,75.422z"/>
</svg>
