<?xml version="1.0" encoding="utf-8"?>
<!-- Generator: Adobe Illustrator 16.0.0, SVG Export Plug-In . SVG Version: 6.00 Build 0)  -->
<!DOCTYPE svg PUBLIC "-//W3C//DTD SVG 1.1//EN" "http://www.w3.org/Graphics/SVG/1.1/DTD/svg11.dtd">
<svg version="1.1" id="Layer_1" xmlns="http://www.w3.org/2000/svg" xmlns:xlink="http://www.w3.org/1999/xlink" x="0px" y="0px"
	 width="77.5px" height="82px" viewBox="0 0 77.5 82" enable-background="new 0 0 77.5 82" xml:space="preserve">
<path d="M74.725,17.197H31.951c0.467-1.291,0.698-2.445,0.698-3.471c-0.001-6.908-5.622-12.529-12.53-12.529
	c-6.91,0-12.531,5.621-12.531,12.53c0,1.024,0.232,2.179,0.699,3.47H3.771c-1.253,0-2.27,1.016-2.27,2.27v59.336
	c0,0-0.149,2.279,2.201,2.395h71.021c1.254,0,2.27-1.017,2.27-2.271v-59.46C76.994,18.213,75.979,17.197,74.725,17.197
	 M20.119,5.736c4.405,0,7.99,3.584,7.99,7.991c0,2.854-4.246,8.988-7.99,13.429c-3.744-4.44-7.99-10.574-7.99-13.429
	C12.129,9.32,15.713,5.736,20.119,5.736 M6.041,21.736h4.498c0.732,1.209,7.797,10.276,7.905,10.395
	c0.431,0.47,1.037,0.736,1.675,0.736c0.637,0,1.244-0.267,1.674-0.736c0.107-0.118,7.173-9.186,7.906-10.395h10.616L6.041,56.011
	V21.736z M9.252,76.656l21.127-21.127l21.127,21.127H9.252z M57.927,76.656L31.984,50.715c-0.887-0.887-2.324-0.887-3.21,0
	L6.041,73.447V62.431l40.694-40.694h11.017L37.494,42c-0.328,0.305-1.361,1.728,0.043,3.251v0.001l31.405,31.404H57.927z
	 M52.102,33.808l9.793,9.794l-9.793,9.793l-9.794-9.793L52.102,33.808z M72.455,73.748L55.311,56.605l11.398-11.398
	c0.888-0.887,0.888-2.324,0-3.211L55.311,30.598l8.861-8.861h8.283V73.748z"/>
</svg>
