<?xml version="1.0" encoding="utf-8"?>
<!-- Generator: Adobe Illustrator 16.0.0, SVG Export Plug-In . SVG Version: 6.00 Build 0)  -->
<!DOCTYPE svg PUBLIC "-//W3C//DTD SVG 1.1//EN" "http://www.w3.org/Graphics/SVG/1.1/DTD/svg11.dtd">
<svg version="1.1" id="Layer_1" xmlns="http://www.w3.org/2000/svg" xmlns:xlink="http://www.w3.org/1999/xlink" x="0px" y="0px"
	 width="98.75px" height="79.25px" viewBox="0 0 98.75 79.25" enable-background="new 0 0 98.75 79.25" xml:space="preserve">
<path d="M97.271,31.447c0.001-1.16-0.735-2.193-1.834-2.57l-13.633-4.689l13.631-4.672c1.099-0.377,1.835-1.409,1.836-2.569
	c0-1.161-0.735-2.194-1.834-2.571L50.284-1.156c-0.572-0.195-1.194-0.196-1.766,0L3.209,14.375
	c-1.098,0.375-1.836,1.408-1.836,2.568c-0.001,1.161,0.736,2.193,1.834,2.572l13.633,4.688L3.209,28.875
	c-1.098,0.377-1.836,1.409-1.836,2.569c-0.001,1.161,0.736,2.194,1.834,2.571l13.633,4.689L3.209,43.377
	c-1.098,0.377-1.836,1.408-1.836,2.569c-0.001,1.16,0.736,2.194,1.834,2.571l13.633,4.689L3.209,57.879
	c-1.098,0.375-1.836,1.408-1.836,2.568c-0.001,1.161,0.736,2.193,1.834,2.572l45.152,15.529c0.287,0.099,0.586,0.147,0.885,0.147
	c0.298,0,0.595-0.049,0.881-0.146l45.31-15.53c1.099-0.378,1.835-1.409,1.836-2.57c0.001-1.16-0.735-2.194-1.834-2.571L81.804,53.19
	l13.631-4.673c1.099-0.375,1.835-1.408,1.836-2.568c0-1.161-0.735-2.193-1.834-2.572l-13.633-4.688l13.631-4.671
	C96.533,33.641,97.27,32.608,97.271,31.447 M12.458,16.949l36.94-12.661L86.185,16.94L49.245,29.602L12.458,16.949z M86.185,60.444
	L49.245,73.106L12.459,60.454l12.747-4.37l23.153,7.963c0.286,0.1,0.586,0.148,0.885,0.148c0.297,0,0.595-0.049,0.881-0.146
	l23.31-7.99L86.185,60.444z M86.185,45.943L49.245,58.604L12.458,45.952l12.748-4.37l23.153,7.965
	c0.286,0.099,0.586,0.146,0.885,0.146c0.297,0,0.595-0.048,0.881-0.146l23.309-7.988L86.185,45.943z M49.245,44.104L12.459,31.451
	l12.747-4.37l23.153,7.964c0.286,0.098,0.586,0.147,0.885,0.147c0.297,0,0.595-0.05,0.881-0.147l23.31-7.988l12.751,4.386
	L49.245,44.104z"/>
</svg>
