<?xml version="1.0" encoding="utf-8"?>
<!-- Generator: Adobe Illustrator 16.0.0, SVG Export Plug-In . SVG Version: 6.00 Build 0)  -->
<!DOCTYPE svg PUBLIC "-//W3C//DTD SVG 1.1//EN" "http://www.w3.org/Graphics/SVG/1.1/DTD/svg11.dtd">
<svg version="1.1" id="Layer_1" xmlns="http://www.w3.org/2000/svg" xmlns:xlink="http://www.w3.org/1999/xlink" x="0px" y="0px"
	 width="66.084px" height="72.333px" viewBox="0 0 66.084 72.333" enable-background="new 0 0 66.084 72.333" xml:space="preserve">
<path fill="#2D2D2D" d="M63.508,32.801c-0.523-0.436-1.213-0.617-1.883-0.494l-7.946,1.465v-4.996c0-1.267-1.026-2.293-2.293-2.293
	h-1.392c2.932-2.644,4.778-6.469,4.778-10.719c0-7.957-6.474-14.432-14.431-14.432c-5.089,0-9.568,2.65-12.138,6.641
	c-2.571-3.99-7.05-6.641-12.14-6.641c-7.957,0-14.431,6.475-14.431,14.432c0,4.25,1.847,8.075,4.779,10.719H5.021
	c-1.267,0-2.294,1.026-2.294,2.293v27.423c0,1.266,1.027,2.293,2.294,2.293h17.891l-8.927,8.926c-0.896,0.896-0.896,2.349,0,3.243
	c0.896,0.896,2.349,0.896,3.244,0l10.976-10.975L39.178,70.66c0.448,0.449,1.035,0.672,1.622,0.672s1.174-0.225,1.622-0.672
	c0.896-0.895,0.896-2.348,0-3.243l-8.926-8.926h17.89c1.267,0,2.294-1.027,2.294-2.293v-4.996l7.945,1.464
	c0.138,0.025,0.277,0.038,0.416,0.038c0.531,0,1.052-0.185,1.467-0.531c0.524-0.437,0.826-1.082,0.826-1.763V34.563
	C64.334,33.882,64.031,33.236,63.508,32.801 M40.342,5.92c5.428,0,9.844,4.416,9.844,9.844c0,5.43-4.416,9.846-9.844,9.846
	s-9.845-4.416-9.845-9.846C30.497,10.336,34.914,5.92,40.342,5.92 M28.203,23.557c0.697,1.082,1.533,2.066,2.485,2.926h-4.971
	C26.671,25.623,27.506,24.639,28.203,23.557 M6.221,15.764c0-5.428,4.416-9.844,9.846-9.844c5.428,0,9.844,4.416,9.844,9.844
	c0,5.43-4.416,9.846-9.844,9.846C10.637,25.609,6.221,21.193,6.221,15.764 M49.093,53.904H7.314V31.07h41.778V53.904z
	 M59.747,47.656l-6.067-1.118v-8.103l6.067-1.117V47.656z"/>
</svg>
