<?xml version="1.0" encoding="utf-8"?>
<!-- Generator: Adobe Illustrator 16.0.0, SVG Export Plug-In . SVG Version: 6.00 Build 0)  -->
<!DOCTYPE svg PUBLIC "-//W3C//DTD SVG 1.1//EN" "http://www.w3.org/Graphics/SVG/1.1/DTD/svg11.dtd">
<svg version="1.1" id="Layer_1" xmlns="http://www.w3.org/2000/svg" xmlns:xlink="http://www.w3.org/1999/xlink" x="0px" y="0px"
	 width="90.5px" height="75.25px" viewBox="0 0 90.5 75.25" enable-background="new 0 0 90.5 75.25" xml:space="preserve">
<path fill="#2D2D2D" d="M28.594,34.924H4.554c-1.497,0-2.711,1.215-2.711,2.711c0,8.123,6.608,14.731,14.731,14.731
	s14.73-6.608,14.73-14.731C31.305,36.139,30.091,34.924,28.594,34.924 M16.574,46.943c-4.191,0-7.743-2.782-8.907-6.598H25.48
	C24.316,44.161,20.765,46.943,16.574,46.943"/>
<path fill="#2D2D2D" d="M86.038,34.924h-24.04c-1.496,0-2.711,1.215-2.711,2.711c0,8.123,6.608,14.731,14.731,14.731
	c8.122,0,14.731-6.608,14.731-14.731C88.75,36.139,87.535,34.924,86.038,34.924 M74.019,46.943c-4.191,0-7.743-2.782-8.907-6.598
	h17.813C81.763,44.161,78.209,46.943,74.019,46.943"/>
<path fill="#2D2D2D" d="M54.241,68.373h-6.234V15.305c2.411-0.287,5.177-0.879,8.059-1.494c3.329-0.711,6.772-1.447,9.663-1.703
	c3.658-0.324,4.847,0.283,5.189,0.561c0.092,0.074,0.282,0.229,0.355,0.742l-5.15,17.157c-0.43,1.435,0.384,2.946,1.817,3.376
	c1.435,0.43,2.945-0.383,3.376-1.816l2.697-8.986l2.697,8.986c0.353,1.174,1.43,1.932,2.596,1.932c0.258,0,0.52-0.037,0.78-0.115
	c1.434-0.43,2.247-1.941,1.816-3.376L76.7,13.234c-0.174-2.484-1.361-3.965-2.373-4.782C70.329,5.219,62.851,6.816,54.933,8.51
	c-2.499,0.533-4.903,1.047-6.925,1.33V6.506c0-1.496-1.215-2.711-2.711-2.711c-1.497,0-2.711,1.215-2.711,2.711V9.84
	c-2.022-0.283-4.427-0.797-6.926-1.33c-7.918-1.693-15.396-3.291-19.395-0.058c-1.011,0.817-2.199,2.298-2.373,4.782L8.689,30.567
	c-0.431,1.435,0.383,2.946,1.817,3.376c1.434,0.43,2.944-0.383,3.376-1.816l2.696-8.986l2.697,8.986
	c0.353,1.174,1.429,1.932,2.595,1.932c0.259,0,0.521-0.037,0.781-0.115c1.435-0.43,2.247-1.941,1.817-3.376L19.318,13.41
	c0.073-0.512,0.264-0.668,0.356-0.742c0.342-0.277,1.532-0.885,5.188-0.561c2.892,0.256,6.334,0.992,9.663,1.703
	c2.882,0.615,5.648,1.207,8.06,1.494v53.068h-6.235c-1.497,0-2.711,1.215-2.711,2.711c0,1.497,1.214,2.711,2.711,2.711h17.891
	c1.497,0,2.711-1.214,2.711-2.711C56.952,69.588,55.738,68.373,54.241,68.373"/>
</svg>
