<?xml version="1.0" encoding="utf-8"?>
<!-- Generator: Adobe Illustrator 16.0.0, SVG Export Plug-In . SVG Version: 6.00 Build 0)  -->
<!DOCTYPE svg PUBLIC "-//W3C//DTD SVG 1.1//EN" "http://www.w3.org/Graphics/SVG/1.1/DTD/svg11.dtd">
<svg version="1.1" id="Layer_1" xmlns="http://www.w3.org/2000/svg" xmlns:xlink="http://www.w3.org/1999/xlink" x="0px" y="0px"
	 width="49px" height="72.035px" viewBox="0 0 49 72.035" enable-background="new 0 0 49 72.035" xml:space="preserve">
<path fill="#2D2D2D" d="M47.5,22.762c0-12.299-10.005-22.305-22.304-22.305S2.894,10.463,2.894,22.762
	c0,8.531,3.424,13.068,6.443,17.072c2.552,3.381,4.755,6.301,4.755,11.432l-0.001,9.373c0,5.414,4.35,9.818,9.764,9.818h2.683
	c5.413,0,9.782-4.404,9.782-9.818l-0.019-9.373c0-5.131,2.203-8.051,4.754-11.432C44.075,35.83,47.5,31.293,47.5,22.762
	 M26.537,65.912h-2.683c-2.319,0-4.293-1.507-4.996-3.592h12.676C30.83,64.405,28.856,65.912,26.537,65.912 M31.812,57.774H18.582
	v-2.173h13.229V57.774z M31.756,51.057h-13.12c-0.059-6.525-2.91-10.305-5.67-13.961c-2.843-3.768-5.527-7.325-5.527-14.334
	c0-9.793,7.965-17.758,17.758-17.758c9.791,0,17.758,7.965,17.758,17.758c0,7.009-2.686,10.566-5.527,14.334
	C34.668,40.752,31.815,44.531,31.756,51.057"/>
<path fill="#2D2D2D" d="M21.937,40.525c1.18-0.43,1.787-1.734,1.357-2.914l-4.941-13.568l1.677-2.623l3.622,3.355
	c0.871,0.807,2.218,0.807,3.089,0l3.623-3.355l1.677,2.623l-4.941,13.568c-0.43,1.18,0.178,2.484,1.357,2.914
	c0.257,0.094,0.52,0.139,0.777,0.139c0.928,0,1.8-0.574,2.136-1.496l5.326-14.625c0.241-0.664,0.161-1.404-0.22-2.002l-3.746-5.86
	c-0.362-0.567-0.959-0.944-1.627-1.03c-0.666-0.086-1.338,0.129-1.832,0.588l-4.074,3.772l-4.074-3.772
	c-0.494-0.459-1.167-0.673-1.833-0.588c-0.668,0.086-1.265,0.463-1.626,1.03l-3.746,5.862c-0.381,0.596-0.462,1.336-0.22,2
	l5.325,14.625C19.452,40.347,20.757,40.955,21.937,40.525"/>
</svg>
