<?xml version="1.0" encoding="utf-8"?>
<!-- Generator: Adobe Illustrator 16.0.0, SVG Export Plug-In . SVG Version: 6.00 Build 0)  -->
<!DOCTYPE svg PUBLIC "-//W3C//DTD SVG 1.1//EN" "http://www.w3.org/Graphics/SVG/1.1/DTD/svg11.dtd">
<svg version="1.1" id="Layer_1" xmlns="http://www.w3.org/2000/svg" xmlns:xlink="http://www.w3.org/1999/xlink" x="0px" y="0px"
	 width="84.666px" height="85.334px" viewBox="0 0 84.666 85.334" enable-background="new 0 0 84.666 85.334" xml:space="preserve">
<path d="M42.522,1.164C19.41,1.164,0.677,19.898,0.677,43.01c0,23.113,18.733,41.848,41.846,41.848S84.369,66.123,84.369,43.01
	C84.369,19.898,65.635,1.164,42.522,1.164 M42.522,78.318c-19.5,0-35.308-15.807-35.308-35.309c0-19.5,15.808-35.307,35.308-35.307
	c19.501,0,35.308,15.807,35.308,35.307C77.83,62.512,62.023,78.318,42.522,78.318"/>
<path d="M63.445,29.104c-0.705,0.419-2.818,1.254-4.791,1.463c1.264-0.733,3.137-3.138,3.598-5.049
	c-1.215,0.835-4.006,2.054-5.385,2.054c0,0,0,0.003,0.002,0.007c-1.574-1.771-3.785-2.875-6.242-2.875
	c-4.767,0-8.633,4.161-8.633,9.297c0,0.713,0.078,1.404,0.222,2.071h-0.003c-6.467-0.179-14.026-3.67-18.287-9.645
	c-2.615,4.88-0.352,10.306,2.617,12.283c-1.014,0.084-2.887-0.125-3.769-1.047c-0.062,3.235,1.386,7.526,6.658,9.082
	c-1.017,0.59-2.81,0.421-3.593,0.29c0.275,2.738,3.83,6.313,7.715,6.313c-1.385,1.722-6.109,4.856-11.955,3.857
	c3.973,2.605,8.602,4.112,13.503,4.112c13.929,0,24.744-12.154,24.162-27.149c0-0.019-0.005-0.036-0.005-0.052
	c0-0.041,0.005-0.082,0.005-0.117c0-0.046-0.005-0.093-0.005-0.141C60.526,32.93,62.228,31.279,63.445,29.104"/>
</svg>
