<?xml version="1.0" encoding="utf-8"?>
<!-- Generator: Adobe Illustrator 18.0.0, SVG Export Plug-In . SVG Version: 6.00 Build 0)  -->
<!DOCTYPE svg PUBLIC "-//W3C//DTD SVG 1.1//EN" "http://www.w3.org/Graphics/SVG/1.1/DTD/svg11.dtd">
<svg version="1.1" xmlns="http://www.w3.org/2000/svg" xmlns:xlink="http://www.w3.org/1999/xlink" x="0px" y="0px"
	 viewBox="0 0 219 55.5" enable-background="new 0 0 219 55.5" xml:space="preserve">
<g id="Layer_19">
</g>
<g id="Paper_Plane_x2C__IOS_7_Interface_Symbol_1_">
	<rect x="-1133.9" y="-406.4" fill="#F3F3F3" width="1597" height="1005"/>
	<rect x="-32.5" y="-123.9" fill="#FFFFFF" width="289.1" height="287.6"/>
	<g>
		<path fill="#2D2D2D" d="M29.8,19.7h3.6l3,8.2l3-8.2H43l-4.1,10.7l3.6,8.9L50,19.6h4.2l-10,24.1h-3.3L36.4,33l-4.5,10.8h-3.3
			l-10-24.1h4.1l7.5,19.7l3.6-8.9L29.8,19.7z"/>
		<path fill="#2D2D2D" d="M72.5,43.8h-3.7v-10c0-1.6-0.3-2.8-0.9-3.6S66.5,29,65.4,29c-0.5,0-1,0.1-1.6,0.3c-0.5,0.2-1,0.5-1.5,0.9
			c-0.5,0.4-0.9,0.8-1.2,1.3c-0.4,0.5-0.6,1.1-0.8,1.7v10.6h-3.7V19h3.7v10.6c0.7-1.2,1.6-2.2,2.8-2.9c1.2-0.7,2.4-1,3.8-1
			c1.1,0,2,0.2,2.7,0.6c0.7,0.4,1.3,0.9,1.7,1.6c0.4,0.7,0.7,1.4,0.9,2.3c0.2,0.9,0.3,1.8,0.3,2.8V43.8z"/>
		<path fill="#2D2D2D" d="M81.6,44.1c-0.9,0-1.7-0.1-2.4-0.4c-0.7-0.3-1.4-0.7-1.9-1.2s-1-1.1-1.3-1.8c-0.3-0.7-0.5-1.4-0.5-2.2
			c0-0.8,0.2-1.6,0.5-2.3c0.4-0.7,0.9-1.3,1.5-1.8c0.7-0.5,1.5-0.9,2.4-1.2s1.9-0.4,3-0.4c0.8,0,1.7,0.1,2.5,0.2
			c0.8,0.1,1.6,0.3,2.2,0.6v-1.2c0-1.3-0.4-2.3-1.1-3.1c-0.7-0.7-1.8-1.1-3.2-1.1c-1,0-1.9,0.2-2.8,0.5c-0.9,0.4-1.9,0.9-2.8,1.5
			L76.6,28c2.3-1.5,4.7-2.3,7.1-2.3c2.4,0,4.4,0.6,5.7,1.9c1.4,1.2,2,3,2,5.4v6.4c0,0.8,0.3,1.2,1,1.2v3.2c-0.4,0.1-0.7,0.1-0.9,0.1
			c-0.3,0-0.5,0-0.8,0c-0.7,0-1.3-0.2-1.7-0.5c-0.4-0.4-0.6-0.8-0.7-1.4l-0.1-1.1c-0.8,1-1.8,1.8-2.9,2.4
			C84.1,43.8,82.9,44.1,81.6,44.1z M82.6,41.4c0.9,0,1.8-0.2,2.6-0.5c0.8-0.3,1.4-0.8,1.9-1.4c0.5-0.4,0.7-0.8,0.7-1.3v-2.3
			c-0.6-0.2-1.3-0.4-2-0.6c-0.7-0.1-1.4-0.2-2.1-0.2c-1.3,0-2.4,0.3-3.3,0.9c-0.9,0.6-1.3,1.3-1.3,2.3c0,0.9,0.3,1.6,1,2.2
			C80.7,41.1,81.6,41.4,82.6,41.4z"/>
		<path fill="#2D2D2D" d="M105.8,42.9c-0.5,0.2-1.1,0.5-2,0.8s-1.7,0.4-2.7,0.4c-0.6,0-1.1-0.1-1.7-0.2c-0.5-0.2-1-0.4-1.4-0.7
			c-0.4-0.3-0.7-0.7-0.9-1.2c-0.2-0.5-0.3-1.1-0.3-1.9V28.9h-2.3V26h2.3v-5.8h3.7V26h3.9v2.9h-3.9v9.9c0,0.6,0.2,1.1,0.6,1.4
			c0.4,0.3,0.8,0.4,1.3,0.4c0.5,0,1-0.1,1.5-0.3c0.5-0.2,0.8-0.3,1.1-0.4L105.8,42.9z"/>
		<path fill="#2D2D2D" d="M138,26h3.6l-7.5,17.8H131l-3.3-8.3l-3.3,8.3h-3.1L113.8,26h3.6l5.7,14.2l2.6-6.6l-3.1-7.5h3.1l2,5.6
			l2-5.6h3.1l-3.1,7.5l2.6,6.6L138,26z"/>
		<path fill="#2D2D2D" d="M151.5,44.1c-1.4,0-2.6-0.2-3.8-0.7c-1.1-0.5-2.1-1.1-2.9-2c-0.8-0.8-1.4-1.8-1.9-2.9
			c-0.4-1.1-0.7-2.3-0.7-3.5s0.2-2.4,0.7-3.6c0.4-1.1,1.1-2.1,1.9-3s1.8-1.5,2.9-2c1.1-0.5,2.4-0.7,3.8-0.7c1.4,0,2.6,0.2,3.8,0.7
			c1.1,0.5,2.1,1.2,2.9,2c0.8,0.8,1.4,1.8,1.8,2.9c0.4,1.1,0.6,2.3,0.6,3.5c0,0.3,0,0.5,0,0.8c0,0.2,0,0.4-0.1,0.6h-14.2
			c0.1,0.8,0.3,1.5,0.6,2.1c0.3,0.6,0.7,1.2,1.2,1.6c0.5,0.5,1,0.8,1.7,1.1c0.6,0.3,1.3,0.4,2,0.4c0.5,0,1-0.1,1.5-0.2
			c0.5-0.1,0.9-0.3,1.3-0.5c0.4-0.2,0.8-0.5,1.1-0.9c0.3-0.3,0.6-0.7,0.7-1.1l3.2,0.9c-0.6,1.3-1.6,2.4-3,3.3S153.3,44.1,151.5,44.1
			z M156.9,33.6c-0.1-0.7-0.3-1.4-0.6-2.1c-0.3-0.6-0.7-1.2-1.2-1.6c-0.5-0.4-1-0.8-1.7-1c-0.6-0.2-1.3-0.4-2-0.4
			c-0.7,0-1.4,0.1-2,0.4c-0.6,0.2-1.2,0.6-1.6,1c-0.5,0.4-0.9,1-1.2,1.6c-0.3,0.6-0.5,1.3-0.5,2.1H156.9z"/>
		<path fill="#2D2D2D" d="M179.3,44.1c-1.2,0-2.3-0.2-3.3-0.7c-1-0.5-1.9-1.1-2.7-2c-0.7-0.8-1.3-1.8-1.8-2.9
			c-0.4-1.1-0.6-2.3-0.6-3.6c0-1.2,0.2-2.4,0.6-3.5c0.4-1.1,1-2.1,1.7-2.9c0.7-0.8,1.6-1.5,2.5-2c1-0.5,2-0.7,3.2-0.7
			c1.4,0,2.7,0.3,3.8,1s1.9,1.6,2.5,2.6V19h3.7v20.4c0,0.4,0.1,0.7,0.2,0.9c0.1,0.2,0.4,0.3,0.8,0.3v3.2c-0.4,0.1-0.7,0.1-0.9,0.1
			c-0.2,0-0.4,0-0.6,0c-0.7,0-1.4-0.2-1.8-0.6c-0.5-0.4-0.7-0.9-0.8-1.5l-0.1-1.3c-0.7,1.1-1.6,2-2.7,2.6
			C181.9,43.8,180.7,44.1,179.3,44.1z M180.2,40.9c0.5,0,1.1-0.1,1.6-0.3c0.5-0.2,1-0.4,1.5-0.7c0.5-0.3,0.8-0.7,1.2-1.1
			c0.3-0.4,0.6-0.9,0.7-1.4v-4.7c-0.2-0.6-0.5-1.1-0.9-1.6c-0.4-0.5-0.8-0.9-1.3-1.2c-0.5-0.3-1-0.6-1.5-0.8
			c-0.5-0.2-1.1-0.3-1.6-0.3c-0.7,0-1.4,0.2-2.1,0.5c-0.6,0.3-1.2,0.8-1.6,1.4c-0.5,0.6-0.8,1.2-1.1,1.9c-0.3,0.7-0.4,1.5-0.4,2.2
			c0,0.8,0.1,1.6,0.4,2.3c0.3,0.7,0.7,1.4,1.2,1.9c0.5,0.5,1.1,1,1.7,1.3C178.7,40.8,179.4,40.9,180.2,40.9z"/>
		<path fill="#2D2D2D" d="M201.7,44.1c-1.4,0-2.7-0.2-3.8-0.7c-1.1-0.5-2.1-1.2-2.9-2c-0.8-0.8-1.4-1.8-1.8-2.9s-0.6-2.3-0.6-3.5
			s0.2-2.4,0.6-3.5c0.4-1.1,1-2.1,1.9-2.9c0.8-0.8,1.8-1.5,2.9-2s2.4-0.7,3.8-0.7c1.4,0,2.6,0.2,3.8,0.7s2.1,1.2,2.9,2
			c0.8,0.8,1.4,1.8,1.9,2.9c0.4,1.1,0.6,2.3,0.6,3.5s-0.2,2.4-0.6,3.5s-1,2.1-1.9,2.9c-0.8,0.8-1.8,1.5-2.9,2
			C204.3,43.9,203.1,44.1,201.7,44.1z M196.4,34.9c0,0.9,0.1,1.7,0.4,2.4c0.3,0.7,0.6,1.4,1.1,1.9c0.5,0.5,1,1,1.7,1.3
			c0.6,0.3,1.3,0.5,2.1,0.5s1.4-0.2,2.1-0.5c0.6-0.3,1.2-0.7,1.7-1.3c0.5-0.5,0.9-1.2,1.1-1.9c0.3-0.7,0.4-1.5,0.4-2.4
			c0-0.8-0.1-1.6-0.4-2.4c-0.3-0.7-0.6-1.4-1.1-1.9c-0.5-0.5-1-1-1.7-1.3c-0.6-0.3-1.3-0.5-2.1-0.5c-0.7,0-1.4,0.2-2.1,0.5
			c-0.6,0.3-1.2,0.7-1.7,1.3c-0.5,0.5-0.9,1.2-1.1,1.9C196.5,33.3,196.4,34.1,196.4,34.9z"/>
	</g>
</g>
<g id="Layer_13">
</g>
<g id="Layer_1">
</g>
<g id="Share_Rotated_Symbol_In_Circular_Button">
</g>
<g id="Move_Arrows_Circular_Outlined_Button">
</g>
<g id="Objective_Searching">
</g>
<g id="Plugin_x2C__Puzzle_Piece_Shape_x2C__IOS_7_Interface_Symbol">
</g>
<g id="Robotic_Arm_x2C__IOS_7_Interface_Symbol">
</g>
<g id="Camcorder_x2C__IOS_7_Symbol">
</g>
<g id="Three_Fingers_x2C__IOS_7_Symbol">
</g>
<g id="Cloudy_With_Drizzling_x2C__IOS_7_Interface_Symbol">
</g>
<g id="Religious_Symbol_x2C__IOS_7">
</g>
<g id="map">
</g>
<g id="social_icons">
</g>
<g id="Layer_20">
</g>
<g id="Hot_Drink_Coffee">
</g>
<g id="Play_Symbol">
</g>
<g id="Old_Telephone">
</g>
<g id="Close_Envelope">
</g>
<g id="Light_Bulb">
</g>
<g id="Video_Camera">
</g>
<g id="Cup_Of_Hot_Coffee">
</g>
<g id="Weighing_Scale">
</g>
<g id="Map_With_Roads_And_Placeholder">
</g>
<g id="Agenda_With_Rings">
</g>
<g id="Shining_Sun">
</g>
<g id="Down_Arrow_With_Cloud">
</g>
<g id="Elemental_Tip">
</g>
<g id="Four_Layers">
</g>
<g id="Paper_Plane">
	<g id="_x31_180boundary">
	</g>
</g>
<g id="Arrow_Point_To_Right">
</g>
<g id="User_Name">
</g>
<g id="Printed_Paper">
</g>
</svg>
