[
  {
    "no": 1,
    "name": "Panchagarh-1",
    "booth": 685,
    "male": 165047,
    "female": 163868,
    "totvoter": 328915,
    "index": 0.933052612,
    "id": "54ed7b34c275a56eba7a48f3"
  },
  {
    "no": 2,
    "name": "Panchagarh-2",
    "booth": 633,
    "male": 143262,
    "female": 143621,
    "totvoter": 286883,
    "index": 1.06975666,
    "id": "54ed7b34c275a56eba7a48f4"
  },
  {
    "no": 3,
    "name": "Thakurgaon-1",
    "booth": 816,
    "male": 185065,
    "female": 183714,
    "totvoter": 368779,
    "index": 0.83219218,
    "id": "54ed7b34c275a56eba7a48f5"
  },
  {
    "no": 4,
    "name": "Thakurgaon-2",
    "booth": 524,
    "male": 122866,
    "female": 120006,
    "totvoter": 242872,
    "index": 1.263607991,
    "id": "54ed7b34c275a56eba7a48f6"
  },
  {
    "no": 5,
    "name": "Thakurgaon-3",
    "booth": 606,
    "male": 133015,
    "female": 129949,
    "totvoter": 262964,
    "index": 1.16706089,
    "id": "54ed7b34c275a56eba7a48f7"
  },
  {
    "no": 6,
    "name": "Dinajpur-1",
    "booth": 622,
    "male": 155684,
    "female": 153006,
    "totvoter": 303817,
    "index": 1.010131099,
    "id": "54ed7b34c275a56eba7a48f8"
  },
  {
    "no": 7,
    "name": "Dinajpur-2",
    "booth": 573,
    "male": 138292,
    "female": 137279,
    "totvoter": 275571,
    "index": 1.113669435,
    "id": "54ed7b34c275a56eba7a48f9"
  },
  {
    "no": 8,
    "name": "Dinajpur-3",
    "booth": 637,
    "male": 158099,
    "female": 155751,
    "totvoter": 313850,
    "index": 0.977839732,
    "id": "54ed7b34c275a56eba7a48fa"
  },
  {
    "no": 9,
    "name": "Dinajpur-4",
    "booth": 584,
    "male": 152289,
    "female": 150764,
    "totvoter": 303053,
    "index": 1.01267765,
    "id": "54ed7b34c275a56eba7a48fb"
  },
  {
    "no": 10,
    "name": "Dinajpur-5",
    "booth": 671,
    "male": 178416,
    "female": 177269,
    "totvoter": 355685,
    "index": 0.862828064,
    "id": "54ed7b34c275a56eba7a48fc"
  },
  {
    "no": 11,
    "name": "Dinajpur-6",
    "booth": 897,
    "male": 205811,
    "female": 207773,
    "totvoter": 413584,
    "index": 0.742037893,
    "id": "54ed7b34c275a56eba7a48fd"
  },
  {
    "no": 12,
    "name": "Nilphamari-1",
    "booth": 711,
    "male": 166612,
    "female": 166173,
    "totvoter": 332785,
    "index": 0.922202022,
    "id": "54ed7b34c275a56eba7a48fe"
  },
  {
    "no": 13,
    "name": "Nilphamari-2",
    "booth": 562,
    "male": 137898,
    "female": 137500,
    "totvoter": 275398,
    "index": 1.114369022,
    "id": "54ed7b34c275a56eba7a48ff"
  },
  {
    "no": 14,
    "name": "Nilphamari-3",
    "booth": 554,
    "male": 131057,
    "female": 130458,
    "totvoter": 261515,
    "index": 1.173527331,
    "id": "54ed7b34c275a56eba7a4900"
  },
  {
    "no": 15,
    "name": "Nilphamari-4",
    "booth": 593,
    "male": 139514,
    "female": 139568,
    "totvoter": 279082,
    "index": 1.099658882,
    "id": "54ed7b34c275a56eba7a4901"
  },
  {
    "no": 16,
    "name": "Lalmonirhat-1",
    "booth": 600,
    "male": 133615,
    "female": 134986,
    "totvoter": 268601,
    "index": 1.142568345,
    "id": "54ed7b34c275a56eba7a4902"
  },
  {
    "no": 17,
    "name": "Lalmonirhat-2",
    "booth": 661,
    "male": 129648,
    "female": 131972,
    "totvoter": 261620,
    "index": 1.173056341,
    "id": "54ed7b34c275a56eba7a4903"
  },
  {
    "no": 18,
    "name": "Lalmonirhat-3",
    "booth": 459,
    "male": 111125,
    "female": 113174,
    "totvoter": 224299,
    "index": 1.368240607,
    "id": "54ed7b34c275a56eba7a4904"
  },
  {
    "no": 19,
    "name": "Rangpur-1",
    "booth": 406,
    "male": 100025,
    "female": 98843,
    "totvoter": 198868,
    "index": 1.543209566,
    "id": "54ed7b34c275a56eba7a4905"
  },
  {
    "no": 20,
    "name": "Rangpur-2",
    "booth": 579,
    "male": 140976,
    "female": 142719,
    "totvoter": 283695,
    "index": 1.081777966,
    "id": "54ed7b34c275a56eba7a4906"
  },
  {
    "no": 21,
    "name": "Rangpur-3",
    "booth": 915,
    "male": 230220,
    "female": 225400,
    "totvoter": 455620,
    "index": 0.673576665,
    "id": "54ed7b34c275a56eba7a4907"
  },
  {
    "no": 22,
    "name": "Rangpur-4",
    "booth": 736,
    "male": 179632,
    "female": 189444,
    "totvoter": 369076,
    "index": 0.831522505,
    "id": "54ed7b34c275a56eba7a4908"
  },
  {
    "no": 23,
    "name": "Rangpur-5",
    "booth": 712,
    "male": 173904,
    "female": 176902,
    "totvoter": 350806,
    "index": 0.874828253,
    "id": "54ed7b34c275a56eba7a4909"
  },
  {
    "no": 24,
    "name": "Rangpur-6",
    "booth": 534,
    "male": 130153,
    "female": 132582,
    "totvoter": 262735,
    "index": 1.168078102,
    "id": "54ed7b34c275a56eba7a490a"
  },
  {
    "no": 25,
    "name": "Kurigram-1",
    "booth": 914,
    "male": 202374,
    "female": 207785,
    "totvoter": 410159,
    "index": 0.748234221,
    "id": "54ed7b34c275a56eba7a490b"
  },
  {
    "no": 26,
    "name": "Kurigram-2",
    "booth": 933,
    "male": 214687,
    "female": 222538,
    "totvoter": 437225,
    "index": 0.70191549,
    "id": "54ed7b34c275a56eba7a490c"
  },
  {
    "no": 27,
    "name": "Kurigram-3",
    "booth": 715,
    "male": 156540,
    "female": 168170,
    "totvoter": 324710,
    "index": 0.94513566,
    "id": "54ed7b34c275a56eba7a490d"
  },
  {
    "no": 28,
    "name": "Kurigram-4",
    "booth": 466,
    "male": 98442,
    "female": 104604,
    "totvoter": 203046,
    "index": 1.511455532,
    "id": "54ed7b34c275a56eba7a490e"
  },
  {
    "no": 29,
    "name": "Gaibandha-1",
    "booth": 611,
    "male": 146681,
    "female": 156172,
    "totvoter": 302853,
    "index": 1.013346409,
    "id": "54ed7b34c275a56eba7a490f"
  },
  {
    "no": 30,
    "name": "Gaibandha-2",
    "booth": 632,
    "male": 144042,
    "female": 151959,
    "totvoter": 296001,
    "index": 1.03680393,
    "id": "54ed7b34c275a56eba7a4910"
  },
  {
    "no": 31,
    "name": "Gaibandha-3",
    "booth": 693,
    "male": 179368,
    "female": 190429,
    "totvoter": 369797,
    "index": 0.82990127,
    "id": "54ed7b34c275a56eba7a4911"
  },
  {
    "no": 32,
    "name": "Gaibandha-4",
    "booth": 667,
    "male": 172511,
    "female": 180114,
    "totvoter": 352625,
    "index": 0.870315491,
    "id": "54ed7b34c275a56eba7a4912"
  },
  {
    "no": 33,
    "name": "Gaibandha-5",
    "booth": 473,
    "male": 114397,
    "female": 118660,
    "totvoter": 233057,
    "index": 1.316823781,
    "id": "54ed7b34c275a56eba7a4913"
  },
  {
    "no": 34,
    "name": "Joypurhat 1",
    "booth": 767,
    "male": 179194,
    "female": 181640,
    "totvoter": 360834,
    "index": 0.85051575,
    "id": "54ed7b34c275a56eba7a4914"
  },
  {
    "no": 35,
    "name": "Joypurhat 2",
    "booth": 593,
    "male": 136731,
    "female": 142287,
    "totvoter": 279018,
    "index": 1.099911117,
    "id": "54ed7b34c275a56eba7a4915"
  },
  {
    "no": 36,
    "name": "Bogra-1",
    "booth": 570,
    "male": 137683,
    "female": 147362,
    "totvoter": 285045,
    "index": 1.076654563,
    "id": "54ed7b34c275a56eba7a4916"
  },
  {
    "no": 37,
    "name": "Bogra-2",
    "booth": 480,
    "male": 134720,
    "female": 136521,
    "totvoter": 271241,
    "index": 1.131447679,
    "id": "54ed7b34c275a56eba7a4917"
  },
  {
    "no": 38,
    "name": "Bogra-3",
    "booth": 544,
    "male": 132384,
    "female": 135167,
    "totvoter": 267551,
    "index": 1.147052338,
    "id": "54ed7b34c275a56eba7a4918"
  },
  {
    "no": 39,
    "name": "Bogra-4",
    "booth": 567,
    "male": 139190,
    "female": 144065,
    "totvoter": 283255,
    "index": 1.083458368,
    "id": "54ed7b34c275a56eba7a4919"
  },
  {
    "no": 40,
    "name": "Bogra-5",
    "booth": 803,
    "male": 208356,
    "female": 219199,
    "totvoter": 427555,
    "index": 0.717790694,
    "id": "54ed7b34c275a56eba7a491a"
  },
  {
    "no": 41,
    "name": "Bogra-6",
    "booth": 712,
    "male": 180906,
    "female": 177296,
    "totvoter": 358202,
    "index": 0.856765177,
    "id": "54ed7b34c275a56eba7a491b"
  },
  {
    "no": 42,
    "name": "Bogra-7",
    "booth": 799,
    "male": 212951,
    "female": 209178,
    "totvoter": 422129,
    "index": 0.727017097,
    "id": "54ed7b34c275a56eba7a491c"
  },
  {
    "no": 43,
    "name": "Chapai Nawabganj-1",
    "booth": 814,
    "male": 186488,
    "female": 182911,
    "totvoter": 369399,
    "index": 0.830795427,
    "id": "54ed7b34c275a56eba7a491d"
  },
  {
    "no": 44,
    "name": "Chapai Nawabganj-2",
    "booth": 722,
    "male": 163490,
    "female": 169343,
    "totvoter": 332833,
    "index": 0.922069026,
    "id": "54ed7b34c275a56eba7a491e"
  },
  {
    "no": 45,
    "name": "Chapai Nawabganj-3",
    "booth": 692,
    "male": 165005,
    "female": 172379,
    "totvoter": 337384,
    "index": 0.909631162,
    "id": "54ed7b34c275a56eba7a491f"
  },
  {
    "no": 46,
    "name": "Naogaon-1",
    "booth": 719,
    "male": 176041,
    "female": 181719,
    "totvoter": 357760,
    "index": 0.857823681,
    "id": "54ed7b34c275a56eba7a4920"
  },
  {
    "no": 47,
    "name": "Naogaon-2",
    "booth": 582,
    "male": 145618,
    "female": 145362,
    "totvoter": 290980,
    "index": 1.054694481,
    "id": "54ed7b34c275a56eba7a4921"
  },
  {
    "no": 48,
    "name": "Naogaon-3",
    "booth": 706,
    "male": 173191,
    "female": 175436,
    "totvoter": 348627,
    "index": 0.880296133,
    "id": "54ed7b34c275a56eba7a4922"
  },
  {
    "no": 49,
    "name": "Naogaon-4",
    "booth": 533,
    "male": 127489,
    "female": 135174,
    "totvoter": 262663,
    "index": 1.16839829,
    "id": "54ed7b34c275a56eba7a4923"
  },
  {
    "no": 50,
    "name": "Naogaon-5",
    "booth": 552,
    "male": 140524,
    "female": 142455,
    "totvoter": 282979,
    "index": 1.084515105,
    "id": "54ed7b34c275a56eba7a4924"
  },
  {
    "no": 51,
    "name": "Naogaon-6",
    "booth": 505,
    "male": 133692,
    "female": 134641,
    "totvoter": 268333,
    "index": 1.143709495,
    "id": "54ed7b34c275a56eba7a4925"
  },
  {
    "no": 52,
    "name": "Rajshahi-1",
    "booth": 686,
    "male": 165385,
    "female": 171046,
    "totvoter": 336431,
    "index": 0.912207852,
    "id": "54ed7b34c275a56eba7a4926"
  },
  {
    "no": 53,
    "name": "Rajshahi-2",
    "booth": 626,
    "male": 143406,
    "female": 143600,
    "totvoter": 287006,
    "index": 1.069298203,
    "id": "54ed7b34c275a56eba7a4927"
  },
  {
    "no": 54,
    "name": "Rajshahi-3",
    "booth": 657,
    "male": 158768,
    "female": 160965,
    "totvoter": 319733,
    "index": 0.959847748,
    "id": "54ed7b34c275a56eba7a4928"
  },
  {
    "no": 55,
    "name": "Rajshahi-4",
    "booth": 530,
    "male": 125034,
    "female": 128514,
    "totvoter": 253548,
    "index": 1.210401975,
    "id": "54ed7b34c275a56eba7a4929"
  },
  {
    "no": 56,
    "name": "Rajshahi-5",
    "booth": 560,
    "male": 135967,
    "female": 136163,
    "totvoter": 272130,
    "index": 1.127751442,
    "id": "54ed7b34c275a56eba7a492a"
  },
  {
    "no": 57,
    "name": "Rajshahi-6",
    "booth": 587,
    "male": 137238,
    "female": 136571,
    "totvoter": 273809,
    "index": 1.120836057,
    "id": "54ed7b34c275a56eba7a492b"
  },
  {
    "no": 58,
    "name": "Natore-1",
    "booth": 654,
    "male": 141236,
    "female": 141613,
    "totvoter": 282849,
    "index": 1.085013558,
    "id": "54ed7b34c275a56eba7a492c"
  },
  {
    "no": 59,
    "name": "Natore-2",
    "booth": 651,
    "male": 155239,
    "female": 153961,
    "totvoter": 309200,
    "index": 0.992545278,
    "id": "54ed7b34c275a56eba7a492d"
  },
  {
    "no": 60,
    "name": "Natore-3",
    "booth": 607,
    "male": 122238,
    "female": 124954,
    "totvoter": 247192,
    "index": 1.241524807,
    "id": "54ed7b34c275a56eba7a492e"
  },
  {
    "no": 61,
    "name": "Natore-4",
    "booth": 744,
    "male": 165914,
    "female": 169751,
    "totvoter": 335665,
    "index": 0.914289545,
    "id": "54ed7b34c275a56eba7a492f"
  },
  {
    "no": 62,
    "name": "Sirajgonj-1",
    "booth": 595,
    "male": 142306,
    "female": 146029,
    "totvoter": 288335,
    "index": 1.06436957,
    "id": "54ed7b34c275a56eba7a4930"
  },
  {
    "no": 63,
    "name": "Sirajgonj-2",
    "booth": 695,
    "male": 170332,
    "female": 168253,
    "totvoter": 338585,
    "index": 0.906404596,
    "id": "54ed7b34c275a56eba7a4931"
  },
  {
    "no": 64,
    "name": "Sirajgonj-3",
    "booth": 695,
    "male": 164539,
    "female": 166797,
    "totvoter": 331336,
    "index": 0.926235,
    "id": "54ed7b34c275a56eba7a4932"
  },
  {
    "no": 65,
    "name": "Sirajgonj-4",
    "booth": 698,
    "male": 175513,
    "female": 171527,
    "totvoter": 347040,
    "index": 0.884321692,
    "id": "54ed7b34c275a56eba7a4933"
  },
  {
    "no": 66,
    "name": "Sirajgonj-5",
    "booth": 578,
    "male": 154477,
    "female": 148800,
    "totvoter": 303277,
    "index": 1.011929688,
    "id": "54ed7b34c275a56eba7a4934"
  },
  {
    "no": 67,
    "name": "Sirajgonj-6",
    "booth": 691,
    "male": 181348,
    "female": 175012,
    "totvoter": 356360,
    "index": 0.861193737,
    "id": "54ed7b34c275a56eba7a4935"
  },
  {
    "no": 68,
    "name": "Pabna-1",
    "booth": 470,
    "male": 121808,
    "female": 165965,
    "totvoter": 285780,
    "index": 1.073885506,
    "id": "54ed7b34c275a56eba7a4936"
  },
  {
    "no": 69,
    "name": "Pabna-2",
    "booth": 531,
    "male": 134580,
    "female": 131058,
    "totvoter": 265638,
    "index": 1.155312869,
    "id": "54ed7b34c275a56eba7a4937"
  },
  {
    "no": 70,
    "name": "Pabna-3",
    "booth": 725,
    "male": 179776,
    "female": 181066,
    "totvoter": 360842,
    "index": 0.850496893,
    "id": "54ed7b34c275a56eba7a4938"
  },
  {
    "no": 71,
    "name": "Pabna-4",
    "booth": 634,
    "male": 161891,
    "female": 158955,
    "totvoter": 320846,
    "index": 0.95651808,
    "id": "54ed7b34c275a56eba7a4939"
  },
  {
    "no": 72,
    "name": "Pabna-5",
    "booth": 742,
    "male": 195123,
    "female": 194792,
    "totvoter": 389915,
    "index": 0.7870818,
    "id": "54ed7b34c275a56eba7a493a"
  },
  {
    "no": 73,
    "name": "Meherpur-1",
    "booth": 529,
    "male": 122295,
    "female": 126112,
    "totvoter": 248407,
    "index": 1.235452302,
    "id": "54ed7b34c275a56eba7a493b"
  },
  {
    "no": 74,
    "name": "Meherpur-2",
    "booth": 434,
    "male": 102165,
    "female": 106137,
    "totvoter": 208302,
    "index": 1.473317587,
    "id": "54ed7b34c275a56eba7a493c"
  },
  {
    "no": 75,
    "name": "Kushtia-1",
    "booth":411,
    "male": 120210,
    "female": 150000,
    "totvoter": 271039,
    "index": 1.13229092,
    "id": "54ed7b34c275a56eba7a493d"
  },
  {
    "no": 76,
    "name": "Kushtia-2",
    "booth": 300,
    "male": 142587,
    "female": 176167,
    "totvoter": 318754,
    "index": 0.96279676,
    "id": "54ed7b34c275a56eba7a493e"
  },
  {
    "no": 77,
    "name": "Kushtia-3",
    "booth": 439,
    "male": 140000,
    "female": 167494,
    "totvoter": 307494,
    "index": 0.99805199,
    "id": "54ed7b34c275a56eba7a493f"
  },
  {
    "no": 78,
    "name": "Kushtia-4",
    "booth": 1000,
    "male": 125702,
    "female": 152369,
    "totvoter": 278071,
    "index": 1.3238202,
    "id": "54ed7b34c275a56eba7a4940"
  },
  {
    "no": 79,
    "name": "Chuadanga-1",
    "booth": 927,
    "male": 196887,
    "female": 200147,
    "totvoter": 397034,
    "index": 0.772969066,
    "id": "54ed7b34c275a56eba7a4941"
  },
  {
    "no": 80,
    "name": "Chuadanga-2",
    "booth": 945,
    "male": 183661,
    "female": 184117,
    "totvoter": 367778,
    "index": 0.8344572,
    "id": "54ed7b34c275a56eba7a4942"
  },
  {
    "no": 81,
    "name": "Jhenaidah-1",
    "booth": 518,
    "male": 123896,
    "female": 124560,
    "totvoter": 248456,
    "index": 1.235208649,
    "id": "54ed7b34c275a56eba7a4943"
  },
  {
    "no": 82,
    "name": "Jhenaidah-2",
    "booth": 756,
    "male": 188420,
    "female": 191188,
    "totvoter": 379608,
    "index": 0.808452404,
    "id": "54ed7b34c275a56eba7a4944"
  },
  {
    "no": 83,
    "name": "Jhenaidah-3",
    "booth": 651,
    "male": 159247,
    "female": 158542,
    "totvoter": 317789,
    "index": 0.965719392,
    "id": "54ed7b34c275a56eba7a4945"
  },
  {
    "no": 84,
    "name": "Jhenaidah-4",
    "booth": 502,
    "male": 126864,
    "female": 125775,
    "totvoter": 252639,
    "index": 1.214757025,
    "id": "54ed7b34c275a56eba7a4946"
  },
  {
    "no": 85,
    "name": "Jessore 1",
    "booth": 497,
    "male": 117620,
    "female": 117142,
    "totvoter": 234762,
    "index": 1.307260119,
    "id": "54ed7b34c275a56eba7a4947"
  },
  {
    "no": 86,
    "name": "Jessore 2",
    "booth": 814,
    "male": 178878,
    "female": 180970,
    "totvoter": 359848,
    "index": 0.852846202,
    "id": "54ed7b34c275a56eba7a4948"
  },
  {
    "no": 87,
    "name": "Jessore 3",
    "booth": 1012,
    "male": 244120,
    "female": 229766,
    "totvoter": 473886,
    "index": 0.647613561,
    "id": "54ed7b34c275a56eba7a4949"
  },
  {
    "no": 88,
    "name": "Jessore 4",
    "booth": 768,
    "male": 169982,
    "female": 170518,
    "totvoter": 340500,
    "index": 0.901306902,
    "id": "54ed7b34c275a56eba7a494a"
  },
  {
    "no": 89,
    "name": "Jessore 5",
    "booth": 654,
    "male": 129907,
    "female": 115896,
    "totvoter": 245803,
    "index": 1.2485405,
    "id": "54ed7b34c275a56eba7a494b"
  },
  {
    "no": 90,
    "name": "Jessore 6",
    "booth": 365,
    "male": 87211,
    "female": 87124,
    "totvoter": 174335,
    "index": 1.76037514,
    "id": "54ed7b34c275a56eba7a494c"
  },
  {
    "no": 91,
    "name": "Magura-1",
    "booth": 667,
    "male": 151938,
    "female": 155235,
    "totvoter": 307173,
    "index": 0.999094973,
    "id": "54ed7b34c275a56eba7a494d"
  },
  {
    "no": 92,
    "name": "Magura-2",
    "booth": 667,
    "male": 145100,
    "female": 147343,
    "totvoter": 292443,
    "index": 1.049418177,
    "id": "54ed7b34c275a56eba7a494e"
  },
  {
    "no": 93,
    "name": "Narail-1",
    "booth": 424,
    "male": 103664,
    "female": 105973,
    "totvoter": 209637,
    "index": 1.463935279,
    "id": "54ed7b34c275a56eba7a494f"
  },
  {
    "no": 94,
    "name": "Narail-2",
    "booth": 536,
    "male": 133049,
    "female": 139573,
    "totvoter": 272622,
    "index": 1.125716193,
    "id": "54ed7b34c275a56eba7a4950"
  },
  {
    "no": 95,
    "name": "Bagerhat-1",
    "booth": 574,
    "male": 132229,
    "female": 130753,
    "totvoter": 262982,
    "index": 1.16698101,
    "id": "54ed7b34c275a56eba7a4951"
  },
  {
    "no": 96,
    "name": "Bagerhat-2",
    "booth": 591,
    "male": 127295,
    "female": 127178,
    "totvoter": 254473,
    "index": 1.206002208,
    "id": "54ed7b34c275a56eba7a4952"
  },
  {
    "no": 97,
    "name": "Bagerhat-3",
    "booth": 487,
    "male": 102222,
    "female": 102147,
    "totvoter": 204369,
    "index": 1.501670997,
    "id": "54ed7b34c275a56eba7a4953"
  },
  {
    "no": 98,
    "name": "Bagerhat-4",
    "booth": 678,
    "male": 128324,
    "female": 131344,
    "totvoter": 259668,
    "index": 1.181874547,
    "id": "54ed7b34c275a56eba7a4954"
  },
  {
    "no": 99,
    "name": "Khulna-1",
    "booth": 501,
    "male": 114481,
    "female": 115833,
    "totvoter": 230314,
    "index": 1.332506925,
    "id": "54ed7b34c275a56eba7a4955"
  },
  {
    "no": 100,
    "name": "Khulna-2",
    "booth": 673,
    "male": 132561,
    "female": 130601,
    "totvoter": 263162,
    "index": 1.166182808,
    "id": "54ed7b34c275a56eba7a4956"
  },
  {
    "no": 101,
    "name": "Khulna-3",
    "booth": 417,
    "male": 92580,
    "female": 85905,
    "totvoter": 178485,
    "index": 1.719444211,
    "id": "54ed7b34c275a56eba7a4957"
  },
  {
    "no": 102,
    "name": "Khulna-4",
    "booth": 673,
    "male": 149096,
    "female": 148097,
    "totvoter": 297193,
    "index": 1.032645453,
    "id": "54ed7b34c275a56eba7a4958"
  },
  {
    "no": 103,
    "name": "Khulna-5",
    "booth": 649,
    "male": 154031,
    "female": 155135,
    "totvoter": 309166,
    "index": 0.992654432,
    "id": "54ed7b34c275a56eba7a4959"
  },
  {
    "no": 104,
    "name": "Khulna-6",
    "booth": 655,
    "male": 162068,
    "female": 161151,
    "totvoter": 323219,
    "index": 0.949495543,
    "id": "54ed7b34c275a56eba7a495a"
  },
  {
    "no": 105,
    "name": "Satkhira-1",
    "booth": 784,
    "male": 188609,
    "female": 191599,
    "totvoter": 380208,
    "index": 0.807176598,
    "id": "54ed7b34c275a56eba7a495b"
  },
  {
    "no": 106,
    "name": "Satkhira-2",
    "booth": 625,
    "male": 156264,
    "female": 158013,
    "totvoter": 314277,
    "index": 0.976511167,
    "id": "54ed7b34c275a56eba7a495c"
  },
  {
    "no": 107,
    "name": "Satkhira-3",
    "booth": 686,
    "male": 174953,
    "female": 172260,
    "totvoter": 347214,
    "index": 0.88387853,
    "id": "54ed7b34c275a56eba7a495d"
  },
  {
    "no": 108,
    "name": "Satkhira-4",
    "booth": 676,
    "male": 172546,
    "female": 172832,
    "totvoter": 345378,
    "index": 0.888577153,
    "id": "54ed7b34c275a56eba7a495e"
  },
  {
    "no": 109,
    "name": "Barguna-1",
    "booth": 899,
    "male": 176190,
    "female": 182696,
    "totvoter": 358886,
    "index": 0.85513227,
    "id": "54ed7b34c275a56eba7a495f"
  },
  {
    "no": 110,
    "name": "Barguna-2",
    "booth": 552,
    "male": 113103,
    "female": 118461,
    "totvoter": 231564,
    "index": 1.325313952,
    "id": "54ed7b34c275a56eba7a4960"
  },
  {
    "no": 111,
    "name": "Patuakhali-1",
    "booth": 656,
    "male": 164124,
    "female": 169871,
    "totvoter": 333995,
    "index": 0.918861061,
    "id": "54ed7b34c275a56eba7a4961"
  },
  {
    "no": 112,
    "name": "Patuakhali-2",
    "booth": 460,
    "male": 108516,
    "female": 110433,
    "totvoter": 218949,
    "index": 1.401673449,
    "id": "54ed7b34c275a56eba7a4962"
  },
  {
    "no": 113,
    "name": "Patuakhali-3",
    "booth": 502,
    "male": 123062,
    "female": 128775,
    "totvoter": 251837,
    "index": 1.21862554,
    "id": "54ed7b34c275a56eba7a4963"
  },
  {
    "no": 114,
    "name": "Patuakhali-4",
    "booth": 452,
    "male": 109656,
    "female": 109629,
    "totvoter": 219285,
    "index": 1.399525731,
    "id": "54ed7b34c275a56eba7a4964"
  },
  {
    "no": 115,
    "name": "BHOLA-1",
    "booth": 487,
    "male": 133189,
    "female": 132462,
    "totvoter": 265651,
    "index": 1.155256333,
    "id": "54ed7b34c275a56eba7a4965"
  },
  {
    "no": 116,
    "name": "BHOLA-2",
    "booth": 528,
    "male": 126864,
    "female": 126752,
    "totvoter": 253616,
    "index": 1.21007744,
    "id": "54ed7b34c275a56eba7a4966"
  },
  {
    "no": 117,
    "name": "BHOLA-3",
    "booth": 537,
    "male": 126515,
    "female": 128187,
    "totvoter": 254702,
    "index": 1.204917904,
    "id": "54ed7b34c275a56eba7a4967"
  },
  {
    "no": 118,
    "name": "BHOLA-4",
    "booth": 642,
    "male": 159417,
    "female": 156733,
    "totvoter": 316150,
    "index": 0.970725921,
    "id": "54ed7b34c275a56eba7a4968"
  },
  {
    "no": 119,
    "name": "BARISHAL-1",
    "booth": 475,
    "male": 112176,
    "female": 111854,
    "totvoter": 224030,
    "index": 1.369883498,
    "id": "54ed7b34c275a56eba7a4969"
  },
  {
    "no": 120,
    "name": "BARISHAL-2",
    "booth": 569,
    "male": 129791,
    "female": 129033,
    "totvoter": 258824,
    "index": 1.185728526,
    "id": "54ed7b34c275a56eba7a496a"
  },
  {
    "no": 121,
    "name": "BARISHAL-3",
    "booth": 491,
    "male": 107250,
    "female": 109426,
    "totvoter": 216676,
    "index": 1.416377448,
    "id": "54ed7b34c275a56eba7a496b"
  },
  {
    "no": 122,
    "name": "BARISHAL-4",
    "booth": 554,
    "male": 137030,
    "female": 137360,
    "totvoter": 274390,
    "index": 1.118462772,
    "id": "54ed7b34c275a56eba7a496c"
  },
  {
    "no": 123,
    "name": "BARISHAL-5",
    "booth": 810,
    "male": 170967,
    "female": 171261,
    "totvoter": 342228,
    "index": 0.896755964,
    "id": "54ed7b34c275a56eba7a496d"
  },
  {
    "no": 124,
    "name": "BARISHAL-6",
    "booth": 527,
    "male": 106120,
    "female": 108149,
    "totvoter": 214269,
    "index": 1.432288385,
    "id": "54ed7b34c275a56eba7a496e"
  },
  {
    "no": 125,
    "name": "JHALAKATI-1",
    "booth": 354,
    "male": 75285,
    "female": 79049,
    "totvoter": 154334,
    "index": 1.988511929,
    "id": "54ed7b34c275a56eba7a496f"
  },
  {
    "no": 126,
    "name": "JHALAKATI-2",
    "booth": 611,
    "male": 124007,
    "female": 125445,
    "totvoter": 249452,
    "index": 1.230276767,
    "id": "54ed7b34c275a56eba7a4970"
  },
  {
    "no": 127,
    "name": "PIROJPUR-1",
    "booth": 835,
    "male": 185556,
    "female": 181895,
    "totvoter": 367451,
    "index": 0.835199795,
    "id": "54ed7b34c275a56eba7a4971"
  },
  {
    "no": 128,
    "name": "PIROJPUR-2",
    "booth": 417,
    "male": 93458,
    "female": 94872,
    "totvoter": 188330,
    "index": 1.629559815,
    "id": "54ed7b34c275a56eba7a4972"
  },
  {
    "no": 129,
    "name": "PIROJPUR-3",
    "booth": 385,
    "male": 82599,
    "female": 86534,
    "totvoter": 169133,
    "index": 1.814518752,
    "id": "54ed7b34c275a56eba7a4973"
  },
  {
    "no": 130,
    "name": "TANGAIL-1",
    "booth": 688,
    "male": 160154,
    "female": 163689,
    "totvoter": 323843,
    "index": 0.947665999,
    "id": "54ed7b34c275a56eba7a4974"
  },
  {
    "no": 131,
    "name": "TANGAIL-2",
    "booth": 608,
    "male": 155808,
    "female": 156125,
    "totvoter": 311933,
    "index": 0.983849096,
    "id": "54ed7b34c275a56eba7a4975"
  },
  {
    "no": 132,
    "name": "TANGAIL-3",
    "booth": 592,
    "male": 141650,
    "female": 144597,
    "totvoter": 286247,
    "index": 1.072133507,
    "id": "54ed7b34c275a56eba7a4976"
  },
  {
    "no": 133,
    "name": "TANGAIL-4",
    "booth": 668,
    "male": 136374,
    "female": 141473,
    "totvoter": 277847,
    "index": 1.104546747,
    "id": "54ed7b34c275a56eba7a4977"
  },
  {
    "no": 134,
    "name": "TANGAIL-5",
    "booth": 665,
    "male": 168679,
    "female": 171436,
    "totvoter": 340115,
    "index": 0.902327154,
    "id": "54ed7b34c275a56eba7a4978"
  },
  {
    "no": 135,
    "name": "TANGAIL-6",
    "booth": 721,
    "male": 169966,
    "female": 177186,
    "totvoter": 347152,
    "index": 0.884036388,
    "id": "54ed7b34c275a56eba7a4979"
  },
  {
    "no": 136,
    "name": "TANGAIL-7",
    "booth": 576,
    "male": 142256,
    "female": 148445,
    "totvoter": 290701,
    "index": 1.055706723,
    "id": "54ed7b34c275a56eba7a497a"
  },
  {
    "no": 137,
    "name": "TANGAIL-8",
    "booth": 716,
    "male": 145576,
    "female": 161806,
    "totvoter": 307382,
    "index": 0.998415652,
    "id": "54ed7b34c275a56eba7a497b"
  },
  {
    "no": 138,
    "name": "Jamalpur-1",
    "booth": 600,
    "male": 148248,
    "female": 153867,
    "totvoter": 302115,
    "index": 1.01582179,
    "id": "54ed7b34c275a56eba7a497c"
  },
  {
    "no": 139,
    "name": "Jamalpur-2",
    "booth": 541,
    "male": 97695,
    "female": 97903,
    "totvoter": 195598,
    "index": 1.569008886,
    "id": "54ed7b34c275a56eba7a497d"
  },
  {
    "no": 140,
    "name": "Jamalpur-3",
    "booth": 755,
    "male": 186716,
    "female": 190075,
    "totvoter": 376791,
    "index": 0.814496631,
    "id": "54ed7b34c275a56eba7a497e"
  },
  {
    "no": 141,
    "name": "Jamalpur-4",
    "booth": 528,
    "male": 131615,
    "female": 135102,
    "totvoter": 266717,
    "index": 1.150639067,
    "id": "54ed7b34c275a56eba7a497f"
  },
  {
    "no": 142,
    "name": "Jamalpur-5",
    "booth": 714,
    "male": 184685,
    "female": 192404,
    "totvoter": 377089,
    "index": 0.813852963,
    "id": "54ed7b34c275a56eba7a4980"
  },
  {
    "no": 143,
    "name": "Sherpur-1",
    "booth": 590,
    "male": 156943,
    "female": 159802,
    "totvoter": 316745,
    "index": 0.968902429,
    "id": "54ed7b34c275a56eba7a4981"
  },
  {
    "no": 144,
    "name": "Sherpur-2",
    "booth": 626,
    "male": 149874,
    "female": 154429,
    "totvoter": 304303,
    "index": 1.008517826,
    "id": "54ed7b34c275a56eba7a4982"
  },
  {
    "no": 145,
    "name": "Sherpur-3",
    "booth": 592,
    "male": 140955,
    "female": 144833,
    "totvoter": 285788,
    "index": 1.073855445,
    "id": "54ed7b34c275a56eba7a4983"
  },
  {
    "no": 146,
    "name": "Mymensingh-1",
    "booth": 669,
    "male": 164078,
    "female": 164432,
    "totvoter": 328510,
    "index": 0.934202916,
    "id": "54ed7b34c275a56eba7a4984"
  },
  {
    "no": 147,
    "name": "Mymensingh-2",
    "booth": 752,
    "male": 197549,
    "female": 192779,
    "totvoter": 390328,
    "index": 0.786249001,
    "id": "54ed7b34c275a56eba7a4985"
  },
  {
    "no": 148,
    "name": "Mymensingh-3",
    "booth": 388,
    "male": 102793,
    "female": 101737,
    "totvoter": 204530,
    "index": 1.500488926,
    "id": "54ed7b34c275a56eba7a4986"
  },
  {
    "no": 149,
    "name": "Mymensingh-4",
    "booth": 920,
    "male": 253064,
    "female": 248318,
    "totvoter": 501382,
    "index": 0.612098161,
    "id": "54ed7b34c275a56eba7a4987"
  },
  {
    "no": 150,
    "name": "Mymensingh-5",
    "booth": 523,
    "male": 134595,
    "female": 135332,
    "totvoter": 269927,
    "index": 1.136955547,
    "id": "54ed7b34c275a56eba7a4988"
  },
  {
    "no": 151,
    "name": "Mymensingh-6",
    "booth": 593,
    "male": 146651,
    "female": 145230,
    "totvoter": 291881,
    "index": 1.051438771,
    "id": "54ed7b34c275a56eba7a4989"
  },
  {
    "no": 152,
    "name": "Mymensingh-7",
    "booth": 554,
    "male": 137881,
    "female": 135440,
    "totvoter": 273321,
    "index": 1.12283725,
    "id": "54ed7b34c275a56eba7a498a"
  },
  {
    "no": 153,
    "name": "Mymensingh-8",
    "booth": 469,
    "male": 119959,
    "female": 116923,
    "totvoter": 236882,
    "index": 1.295560659,
    "id": "54ed7b34c275a56eba7a498b"
  },
  {
    "no": 154,
    "name": "Mymensingh-9",
    "booth": 616,
    "male": 130282,
    "female": 127559,
    "totvoter": 257841,
    "index": 1.190249029,
    "id": "54ed7b34c275a56eba7a498c"
  },
  {
    "no": 155,
    "name": "Mymensingh-10",
    "booth": 516,
    "male": 145787,
    "female": 144883,
    "totvoter": 290670,
    "index": 1.055819314,
    "id": "54ed7b34c275a56eba7a498d"
  },
  {
    "no": 156,
    "name": "Mymensingh-11",
    "booth": 557,
    "male": 131034,
    "female": 131502,
    "totvoter": 262536,
    "index": 1.168963495,
    "id": "54ed7b34c275a56eba7a498e"
  },
  {
    "no": 157,
    "name": "Netrokona-1",
    "booth": 575,
    "male": 150643,
    "female": 149628,
    "totvoter": 300271,
    "index": 1.022060072,
    "id": "54ed7b34c275a56eba7a498f"
  },
  {
    "no": 158,
    "name": "Netrokona-2",
    "booth": 663,
    "male": 172299,
    "female": 171628,
    "totvoter": 343927,
    "index": 0.892325988,
    "id": "54ed7b34c275a56eba7a4990"
  },
  {
    "no": 159,
    "name": "Netrokona-3",
    "booth": 576,
    "male": 145952,
    "female": 145941,
    "totvoter": 291893,
    "index": 1.051395546,
    "id": "54ed7b34c275a56eba7a4991"
  },
  {
    "no": 160,
    "name": "Netrokona-4",
    "booth": 500,
    "male": 132811,
    "female": 130283,
    "totvoter": 263094,
    "index": 1.166484222,
    "id": "54ed7b34c275a56eba7a4992"
  },
  {
    "no": 161,
    "name": "Netrokona-5",
    "booth": 360,
    "male": 97409,
    "female": 95107,
    "totvoter": 192516,
    "index": 1.594127241,
    "id": "54ed7b34c275a56eba7a4993"
  },
  {
    "no": 162,
    "name": "Kishorganj-1",
    "booth": 723,
    "male": 188013,
    "female": 184447,
    "totvoter": 372460,
    "index": 0.823967674,
    "id": "54ed7b34c275a56eba7a4994"
  },
  {
    "no": 163,
    "name": "Kishorganj-2",
    "booth": 769,
    "male": 178345,
    "female": 184998,
    "totvoter": 363343,
    "index": 0.844642665,
    "id": "54ed7b34c275a56eba7a4995"
  },
  {
    "no": 164,
    "name": "Kishorganj-3",
    "booth": 226,
    "male": 53763,
    "female": 52373,
    "totvoter": 106136,
    "index": 2.891525967,
    "id": "54ed7b34c275a56eba7a4996"
  },
  {
    "no": 165,
    "name": "Kishorganj-4",
    "booth": 569,
    "male": 139312,
    "female": 137889,
    "totvoter": 277201,
    "index": 1.107120826,
    "id": "54ed7b34c275a56eba7a4997"
  },
  {
    "no": 166,
    "name": "Kishorganj-5",
    "booth": 580,
    "male": 122586,
    "female": 120250,
    "totvoter": 242836,
    "index": 1.263795319,
    "id": "54ed7b34c275a56eba7a4998"
  },
  {
    "no": 167,
    "name": "Kishorganj-6",
    "booth": 600,
    "male": 146946,
    "female": 144246,
    "totvoter": 291192,
    "index": 1.053926619,
    "id": "54ed7b34c275a56eba7a4999"
  },
  {
    "no": 168,
    "name": "Manikganj-1",
    "booth": 697,
    "male": 170168,
    "female": 173355,
    "totvoter": 343523,
    "index": 0.893375407,
    "id": "54ed7b34c275a56eba7a499a"
  },
  {
    "no": 169,
    "name": "Manikganj-2",
    "booth": 701,
    "male": 176992,
    "female": 182911,
    "totvoter": 359903,
    "index": 0.852715871,
    "id": "54ed7b34c275a56eba7a499b"
  },
  {
    "no": 170,
    "name": "Manikganj-3",
    "booth": 595,
    "male": 140124,
    "female": 143750,
    "totvoter": 283874,
    "index": 1.081095838,
    "id": "54ed7b34c275a56eba7a499c"
  },
  {
    "no": 171,
    "name": "Munshigonj-1",
    "booth": 702,
    "male": 191193,
    "female": 188103,
    "totvoter": 379296,
    "index": 0.809117418,
    "id": "54ed7b34c275a56eba7a499d"
  },
  {
    "no": 172,
    "name": "Munshigonj-2",
    "booth": 531,
    "male": 137169,
    "female": 128489,
    "totvoter": 265658,
    "index": 1.155225892,
    "id": "54ed7b34c275a56eba7a499e"
  },
  {
    "no": 173,
    "name": "Munshigonj-3",
    "booth": 672,
    "male": 185634,
    "female": 176788,
    "totvoter": 362422,
    "index": 0.846789102,
    "id": "54ed7b34c275a56eba7a499f"
  },
  {
    "no": 174,
    "name": "Dhaka 1",
    "booth": 764,
    "male": 181986,
    "female": 196972,
    "totvoter": 378958,
    "index": 0.809839085,
    "id": "54ed7b34c275a56eba7a49a0"
  },
  {
    "no": 175,
    "name": "Dhaka 2",
    "booth": 788,
    "male": 220218,
    "female": 207384,
    "totvoter": 427602,
    "index": 0.717711797,
    "id": "54ed7b34c275a56eba7a49a1"
  },
  {
    "no": 176,
    "name": "Dhaka 3",
    "booth": 473,
    "male": 140017,
    "female": 133862,
    "totvoter": 273879,
    "index": 1.120549586,
    "id": "54ed7b34c275a56eba7a49a2"
  },
  {
    "no": 177,
    "name": "Dhaka 4",
    "booth": 431,
    "male": 121317,
    "female": 107221,
    "totvoter": 228538,
    "index": 1.342862019,
    "id": "54ed7b34c275a56eba7a49a3"
  },
  {
    "no": 178,
    "name": "Dhaka 5",
    "booth": 803,
    "male": 213561,
    "female": 196801,
    "totvoter": 410362,
    "index": 0.747864081,
    "id": "54ed7b34c275a56eba7a49a4"
  },
  {
    "no": 179,
    "name": "Dhaka 6",
    "booth": 549,
    "male": 134978,
    "female": 113300,
    "totvoter": 248278,
    "index": 1.236094217,
    "id": "54ed7b34c275a56eba7a49a5"
  },
  {
    "no": 180,
    "name": "Dhaka 7",
    "booth": 617,
    "male": 166443,
    "female": 135015,
    "totvoter": 301458,
    "index": 1.01803568,
    "id": "54ed7b34c275a56eba7a49a6"
  },
  {
    "no": 181,
    "name": "Dhaka 8",
    "booth": 534,
    "male": 147802,
    "female": 103190,
    "totvoter": 250992,
    "index": 1.222728214,
    "id": "54ed7b34c275a56eba7a49a7"
  },
  {
    "no": 182,
    "name": "Dhaka 9",
    "booth": 722,
    "male": 200432,
    "female": 191173,
    "totvoter": 391605,
    "index": 0.783685091,
    "id": "54ed7b34c275a56eba7a49a8"
  },
  {
    "no": 183,
    "name": "Dhaka 10",
    "booth": 540,
    "male": 160577,
    "female": 129476,
    "totvoter": 290053,
    "index": 1.05806525,
    "id": "54ed7b34c275a56eba7a49a9"
  },
  {
    "no": 184,
    "name": "Dhaka 11",
    "booth": 733,
    "male": 202659,
    "female": 184555,
    "totvoter": 387214,
    "index": 0.792572066,
    "id": "54ed7b34c275a56eba7a49aa"
  },
  {
    "no": 185,
    "name": "Dhaka 12",
    "booth": 689,
    "male": 175521,
    "female": 150186,
    "totvoter": 325707,
    "index": 0.942242568,
    "id": "54ed7b34c275a56eba7a49ab"
  },
  {
    "no": 186,
    "name": "Dhaka 13",
    "booth": 664,
    "male": 175923,
    "female": 159682,
    "totvoter": 335605,
    "index": 0.914453003,
    "id": "54ed7b34c275a56eba7a49ac"
  },
  {
    "no": 187,
    "name": "Dhaka 14",
    "booth": 774,
    "male": 196981,
    "female": 182603,
    "totvoter": 379584,
    "index": 0.80850352,
    "id": "54ed7b34c275a56eba7a49ad"
  },
  {
    "no": 188,
    "name": "Dhaka 15",
    "booth": 611,
    "male": 165524,
    "female": 153852,
    "totvoter": 319376,
    "index": 0.96092067,
    "id": "54ed7b34c275a56eba7a49ae"
  },
  {
    "no": 189,
    "name": "Dhaka 16",
    "booth": 661,
    "male": 176161,
    "female": 166579,
    "totvoter": 342740,
    "index": 0.895416351,
    "id": "54ed7b34c275a56eba7a49af"
  },
  {
    "no": 190,
    "name": "Dhaka 17",
    "booth": 587,
    "male": 159024,
    "female": 131254,
    "totvoter": 290278,
    "index": 1.057245124,
    "id": "54ed7b34c275a56eba7a49b0"
  },
  {
    "no": 191,
    "name": "Dhaka 18",
    "booth": 1149,
    "male": 260523,
    "female": 240191,
    "totvoter": 500714,
    "index": 0.612914758,
    "id": "54ed7b34c275a56eba7a49b1"
  },
  {
    "no": 192,
    "name": "Dhaka 19",
    "booth": 1221,
    "male": 358152,
    "female": 320397,
    "totvoter": 678549,
    "index": 0.452281265,
    "id": "54ed7b34c275a56eba7a49b2"
  },
  {
    "no": 193,
    "name": "Dhaka 20",
    "booth": 586,
    "male": 142393,
    "female": 146988,
    "totvoter": 289381,
    "index": 1.060522287,
    "id": "54ed7b34c275a56eba7a49b3"
  },
  {
    "no": 194,
    "name": "Gazipur-1",
    "booth": 1094,
    "male": 309759,
    "female": 299045,
    "totvoter": 608804,
    "index": 0.504094914,
    "id": "54ed7b34c275a56eba7a49b4"
  },
  {
    "no": 195,
    "name": "Gazipur-2",
    "booth": 1236,
    "male": 346053,
    "female": 325997,
    "totvoter": 672050,
    "index": 0.456655011,
    "id": "54ed7b34c275a56eba7a49b5"
  },
  {
    "no": 196,
    "name": "Gazipur-3",
    "booth": 710,
    "male": 188867,
    "female": 191973,
    "totvoter": 380840,
    "index": 0.805837097,
    "id": "54ed7b34c275a56eba7a49b6"
  },
  {
    "no": 197,
    "name": "Gazipur-4",
    "booth": 505,
    "male": 111592,
    "female": 117956,
    "totvoter": 229548,
    "index": 1.336953491,
    "id": "54ed7b34c275a56eba7a49b7"
  },
  {
    "no": 198,
    "name": "Gazipur-5",
    "booth": 546,
    "male": 132600,
    "female": 129832,
    "totvoter": 262432,
    "index": 1.169426747,
    "id": "54ed7b34c275a56eba7a49b8"
  },
  {
    "no": 199,
    "name": "Narsingdi-1",
    "booth": 648,
    "male": 165170,
    "female": 164382,
    "totvoter": 329552,
    "index": 0.93124909,
    "id": "54ed7b34c275a56eba7a49b9"
  },
  {
    "no": 200,
    "name": "Narsingdi-2",
    "booth": 410,
    "male": 103291,
    "female": 100082,
    "totvoter": 203373,
    "index": 1.509025289,
    "id": "54ed7b34c275a56eba7a49ba"
  },
  {
    "no": 201,
    "name": "Narsingdi-3",
    "booth": 369,
    "male": 94921,
    "female": 97324,
    "totvoter": 192245,
    "index": 1.596374418,
    "id": "54ed7b34c275a56eba7a49bb"
  },
  {
    "no": 202,
    "name": "Narsingdi-4",
    "booth": 579,
    "male": 145184,
    "female": 154230,
    "totvoter": 299414,
    "index": 1.024985472,
    "id": "54ed7b34c275a56eba7a49bc"
  },
  {
    "no": 203,
    "name": "Narsingdi-5",
    "booth": 622,
    "male": 157264,
    "female": 165068,
    "totvoter": 322332,
    "index": 0.952108385,
    "id": "54ed7b34c275a56eba7a49bd"
  },
  {
    "no": 204,
    "name": "Narayangonj-1",
    "booth": 590,
    "male": 157510,
    "female": 151514,
    "totvoter": 309024,
    "index": 0.993110567,
    "id": "54ed7b34c275a56eba7a49be"
  },
  {
    "no": 205,
    "name": "Narayangonj-2",
    "booth": 472,
    "male": 123427,
    "female": 120859,
    "totvoter": 244286,
    "index": 1.256293852,
    "id": "54ed7b34c275a56eba7a49bf"
  },
  {
    "no": 206,
    "name": "Narayangonj-3",
    "booth": 527,
    "male": 134938,
    "female": 127316,
    "totvoter": 262254,
    "index": 1.170220473,
    "id": "54ed7b34c275a56eba7a49c0"
  },
  {
    "no": 207,
    "name": "Narayangonj-4",
    "booth": 1123,
    "male": 323400,
    "female": 309884,
    "totvoter": 633284,
    "index": 0.484608801,
    "id": "54ed7b34c275a56eba7a49c1"
  },
  {
    "no": 208,
    "name": "Narayangonj-5",
    "booth": 675,
    "male": 174336,
    "female": 168122,
    "totvoter": 342458,
    "index": 0.896153689,
    "id": "54ed7b34c275a56eba7a49c2"
  },
  {
    "no": 209,
    "name": "Rajbari-1",
    "booth": 599,
    "male": 150687,
    "female": 150019,
    "totvoter": 300706,
    "index": 1.020581565,
    "id": "54ed7b34c275a56eba7a49c3"
  },
  {
    "no": 210,
    "name": "Rajbari-2",
    "booth": 777,
    "male": 203717,
    "female": 197940,
    "totvoter": 401657,
    "index": 0.76407233,
    "id": "54ed7b34c275a56eba7a49c4"
  },
  {
    "no": 211,
    "name": "Faridpur-1",
    "booth": 737,
    "male": 179787,
    "female": 182921,
    "totvoter": 362708,
    "index": 0.846121398,
    "id": "54ed7b34c275a56eba7a49c5"
  },
  {
    "no": 212,
    "name": "Faridpur-2",
    "booth": 464,
    "male": 110134,
    "female": 109974,
    "totvoter": 220108,
    "index": 1.394292802,
    "id": "54ed7b34c275a56eba7a49c6"
  },
  {
    "no": 213,
    "name": "Faridpur-3",
    "booth": 585,
    "male": 151729,
    "female": 150134,
    "totvoter": 301863,
    "index": 1.016669814,
    "id": "54ed7b34c275a56eba7a49c7"
  },
  {
    "no": 214,
    "name": "Faridpur-4",
    "booth": 632,
    "male": 159369,
    "female": 162422,
    "totvoter": 321791,
    "index": 0.953709084,
    "id": "54ed7b34c275a56eba7a49c8"
  },
  {
    "no": 215,
    "name": "Gopalgonj-1",
    "booth": 612,
    "male": 137019,
    "female": 139558,
    "totvoter": 276577,
    "index": 1.10961866,
    "id": "54ed7b34c275a56eba7a49c9"
  },
  {
    "no": 216,
    "name": "Gopalgonj-2",
    "booth": 601,
    "male": 133341,
    "female": 135905,
    "totvoter": 269246,
    "index": 1.139831232,
    "id": "54ed7b34c275a56eba7a49ca"
  },
  {
    "no": 217,
    "name": "Gopalgonj-3",
    "booth": 472,
    "male": 107156,
    "female": 104698,
    "totvoter": 211854,
    "index": 1.448615556,
    "id": "54ed7b34c275a56eba7a49cb"
  },
  {
    "no": 218,
    "name": "Madaripur-1",
    "booth": 480,
    "male": 111587,
    "female": 104217,
    "totvoter": 215804,
    "index": 1.42210061,
    "id": "54ed7b34c275a56eba7a49cc"
  },
  {
    "no": 219,
    "name": "Madaripur-2",
    "booth": 639,
    "male": 155111,
    "female": 149109,
    "totvoter": 304220,
    "index": 1.008792979,
    "id": "54ed7b34c275a56eba7a49cd"
  },
  {
    "no": 220,
    "name": "Madaripur-3",
    "booth": 589,
    "male": 130127,
    "female": 126961,
    "totvoter": 257088,
    "index": 1.193735219,
    "id": "54ed7b34c275a56eba7a49ce"
  },
  {
    "no": 221,
    "name": "Shariatpur-1",
    "booth": 542,
    "male": 131811,
    "female": 122501,
    "totvoter": 254312,
    "index": 1.206765705,
    "id": "54ed7b34c275a56eba7a49cf"
  },
  {
    "no": 222,
    "name": "Shariatpur-2",
    "booth": 551,
    "male": 130931,
    "female": 130297,
    "totvoter": 261228,
    "index": 1.174816635,
    "id": "54ed7b34c275a56eba7a49d0"
  },
  {
    "no": 223,
    "name": "Shariatpur-3",
    "booth": 451,
    "male": 106597,
    "female": 107348,
    "totvoter": 213945,
    "index": 1.434457454,
    "id": "54ed7b34c275a56eba7a49d1"
  },
  {
    "no": 224,
    "name": "Sunamganj-1",
    "booth": 907,
    "male": 157200,
    "female": 145855,
    "totvoter": 303055,
    "index": 1.01267097,
    "id": "54ed7b34c275a56eba7a49d2"
  },
  {
    "no": 225,
    "name": "Sunamganj-2",
    "booth": "",
    "male": 101111,
    "female": 93451,
    "totvoter": 194562,
    "index": 1.5773677,
    "id": "54ed7b34c275a56eba7a49d3"
  },
  {
    "no": 226,
    "name": "Sunamganj-3",
    "booth": 525,
    "male": 128104,
    "female": 129935,
    "totvoter": 258039,
    "index": 1.189335721,
    "id": "54ed7b34c275a56eba7a49d4"
  },
  {
    "no": 227,
    "name": "Sunamganj-4",
    "booth": 459,
    "male": 123633,
    "female": 124946,
    "totvoter": 248579,
    "index": 1.234597452,
    "id": "54ed7b34c275a56eba7a49d5"
  },
  {
    "no": 228,
    "name": "Sunamganj-5",
    "booth": 660,
    "male": 174592,
    "female": 177285,
    "totvoter": 351877,
    "index": 0.872165558,
    "id": "54ed7b34c275a56eba7a49d6"
  },
  {
    "no": 229,
    "name": "SYLHET-1",
    "booth": 947,
    "male": 256147,
    "female": 226530,
    "totvoter": 482677,
    "index": 0.63581857,
    "id": "54ed7b34c275a56eba7a49d7"
  },
  {
    "no": 230,
    "name": "SYLHET-2",
    "booth": 601,
    "male": 141723,
    "female": 142558,
    "totvoter": 284281,
    "index": 1.079548053,
    "id": "54ed7b34c275a56eba7a49d8"
  },
  {
    "no": 231,
    "name": "SYLHET-3",
    "booth": 504,
    "male": 122149,
    "female": 122775,
    "totvoter": 244924,
    "index": 1.253021345,
    "id": "54ed7b34c275a56eba7a49d9"
  },
  {
    "no": 232,
    "name": "SYLHET-4",
    "booth": 632,
    "male": 165941,
    "female": 161261,
    "totvoter": 327202,
    "index": 0.937937421,
    "id": "54ed7b34c275a56eba7a49da"
  },
  {
    "no": 233,
    "name": "SYLHET-5",
    "booth": 561,
    "male": 139268,
    "female": 143103,
    "totvoter": 282371,
    "index": 1.086850279,
    "id": "54ed7b34c275a56eba7a49db"
  },
  {
    "no": 234,
    "name": "SYLHET-6",
    "booth": 683,
    "male": 167739,
    "female": 174161,
    "totvoter": 341900,
    "index": 0.897616262,
    "id": "54ed7b34c275a56eba7a49dc"
  },
  {
    "no": 235,
    "name": "MOULOVIBAZER-1",
    "booth": 434,
    "male": 114727,
    "female": 117644,
    "totvoter": 232371,
    "index": 1.320711276,
    "id": "54ed7b34c275a56eba7a49dd"
  },
  {
    "no": 236,
    "name": "MOULOVIBAZER-2",
    "booth": 543,
    "male": 140711,
    "female": 140392,
    "totvoter": 281103,
    "index": 1.091752845,
    "id": "54ed7b34c275a56eba7a49de"
  },
  {
    "no": 237,
    "name": "MOULOVIBAZER-3",
    "booth": 679,
    "male": 174371,
    "female": 173583,
    "totvoter": 347954,
    "index": 0.88199877,
    "id": "54ed7b34c275a56eba7a49df"
  },
  {
    "no": 238,
    "name": "MOULOVIBAZER-4",
    "booth": 575,
    "male": 142065,
    "female": 141392,
    "totvoter": 283457,
    "index": 1.082686263,
    "id": "54ed7b34c275a56eba7a49e0"
  },
  {
    "no": 239,
    "name": "Hobiganj-1",
    "booth": 637,
    "male": 155898,
    "female": 163536,
    "totvoter": 319434,
    "index": 0.960746195,
    "id": "54ed7b34c275a56eba7a49e1"
  },
  {
    "no": 240,
    "name": "Hobiganj-2",
    "booth": 552,
    "male": 132533,
    "female": 134115,
    "totvoter": 266648,
    "index": 1.150936816,
    "id": "54ed7b34c275a56eba7a49e2"
  },
  {
    "no": 241,
    "name": "Hobiganj-3",
    "booth": 587,
    "male": 143152,
    "female": 143461,
    "totvoter": 286613,
    "index": 1.070764411,
    "id": "54ed7b34c275a56eba7a49e3"
  },
  {
    "no": 242,
    "name": "Hobiganj-4",
    "booth": 774,
    "male": 180275,
    "female": 187206,
    "totvoter": 367481,
    "index": 0.835131612,
    "id": "54ed7b34c275a56eba7a49e4"
  },
  {
    "no": 243,
    "name": "Brahmanbaria-1",
    "booth": 342,
    "male": 96004,
    "female": 93118,
    "totvoter": 189122,
    "index": 1.622735589,
    "id": "54ed7b34c275a56eba7a49e5"
  },
  {
    "no": 244,
    "name": "Brahmanbaria-2",
    "booth": 562,
    "male": 149137,
    "female": 143456,
    "totvoter": 292593,
    "index": 1.048880185,
    "id": "54ed7b34c275a56eba7a49e6"
  },
  {
    "no": 245,
    "name": "Brahmanbaria-3",
    "booth": 852,
    "male": 222211,
    "female": 222888,
    "totvoter": 445099,
    "index": 0.689498291,
    "id": "54ed7b34c275a56eba7a49e7"
  },
  {
    "no": 246,
    "name": "Brahmanbaria-4",
    "booth": 540,
    "male": 135817,
    "female": 143298,
    "totvoter": 279115,
    "index": 1.099528868,
    "id": "54ed7b34c275a56eba7a49e8"
  },
  {
    "no": 247,
    "name": "Brahmanbaria-5",
    "booth": 552,
    "male": 133311,
    "female": 141417,
    "totvoter": 274728,
    "index": 1.117086718,
    "id": "54ed7b34c275a56eba7a49e9"
  },
  {
    "no": 248,
    "name": "Brahmanbaria-6",
    "booth": 240,
    "male": 100000,
    "female": 77868,
    "totvoter": 177868,
    "index": 1.72540,
    "id": "54ed7b34c275a56eba7a49ea"
  },
  {
    "no": 249,
    "name": "Comilla-1",
    "booth": 686,
    "male": 152658,
    "female": 153140,
    "totvoter": 305798,
    "index": 1.003587335,
    "id": "54ed7b34c275a56eba7a49eb"
  },
  {
    "no": 250,
    "name": "Comilla-2",
    "booth": 517,
    "male": 122293,
    "female": 127882,
    "totvoter": 250175,
    "index": 1.226721295,
    "id": "54ed7b34c275a56eba7a49ec"
  },
  {
    "no": 251,
    "name": "Comilla-3",
    "booth": 600,
    "male": 163238,
    "female": 169414,
    "totvoter": 332652,
    "index": 0.922570735,
    "id": "54ed7b34c275a56eba7a49ed"
  },
  {
    "no": 252,
    "name": "Comilla-4",
    "booth": 555,
    "male": 135380,
    "female": 137092,
    "totvoter": 272472,
    "index": 1.126335917,
    "id": "54ed7b34c275a56eba7a49ee"
  },
  {
    "no": 253,
    "name": "Comilla-5",
    "booth": 645,
    "male": 161128,
    "female": 159783,
    "totvoter": 320911,
    "index": 0.956324339,
    "id": "54ed7b34c275a56eba7a49ef"
  },
  {
    "no": 254,
    "name": "Comilla-6",
    "booth": 621,
    "male": 159590,
    "female": 156789,
    "totvoter": 316379,
    "index": 0.970023295,
    "id": "54ed7b34c275a56eba7a49f0"
  },
  {
    "no": 255,
    "name": "Comilla-7",
    "booth": 438,
    "male": 108630,
    "female": 112653,
    "totvoter": 221283,
    "index": 1.386889187,
    "id": "54ed7b34c275a56eba7a49f1"
  },
  {
    "no": 256,
    "name": "Comilla-8",
    "booth": 484,
    "male": 122778,
    "female": 130306,
    "totvoter": 253084,
    "index": 1.212621106,
    "id": "54ed7b34c275a56eba7a49f2"
  },
  {
    "no": 257,
    "name": "Comilla-9",
    "booth": 669,
    "male": 157477,
    "female": 164838,
    "totvoter": 322315,
    "index": 0.952158603,
    "id": "54ed7b34c275a56eba7a49f3"
  },
  {
    "no": 258,
    "name": "Comilla-10",
    "booth": 950,
    "male": 234019,
    "female": 310244,
    "totvoter": 547415,
    "index": 0.560625851,
    "id": "54ed7b34c275a56eba7a49f4"
  },
  {
    "no": 259,
    "name": "Comilla-11",
    "booth": 540,
    "male": 137730,
    "female": 140790,
    "totvoter": 278520,
    "index": 1.101877783,
    "id": "54ed7b34c275a56eba7a49f5"
  },
  {
    "no": 260,
    "name": "Chandpur-1",
    "booth": 459,
    "male": 111094,
    "female": 114199,
    "totvoter": 225293,
    "index": 1.362203886,
    "id": "54ed7b34c275a56eba7a49f6"
  },
  {
    "no": 261,
    "name": "Chandpur-2",
    "booth": 690,
    "male": 166496,
    "female": 170244,
    "totvoter": 336740,
    "index": 0.911370791,
    "id": "54ed7b34c275a56eba7a49f7"
  },
  {
    "no": 262,
    "name": "Chandpur-3",
    "booth": 780,
    "male": 188097,
    "female": 178488,
    "totvoter": 366585,
    "index": 0.837172825,
    "id": "54ed7b34c275a56eba7a49f8"
  },
  {
    "no": 263,
    "name": "Chandpur-4",
    "booth": 549,
    "male": 130558,
    "female": 132061,
    "totvoter": 262619,
    "index": 1.168594047,
    "id": "54ed7b34c275a56eba7a49f9"
  },
  {
    "no": 264,
    "name": "Chandpur-5",
    "booth": 726,
    "male": 167622,
    "female": 173714,
    "totvoter": 341336,
    "index": 0.899099421,
    "id": "54ed7b34c275a56eba7a49fa"
  },
  {
    "no": 265,
    "name": "Feni-1",
    "booth": 508,
    "male": 129641,
    "female": 132992,
    "totvoter": 262633,
    "index": 1.168531753,
    "id": "54ed7b34c275a56eba7a49fb"
  },
  {
    "no": 266,
    "name": "Feni-2",
    "booth": 569,
    "male": 151105,
    "female": 148634,
    "totvoter": 299739,
    "index": 1.023874104,
    "id": "54ed7b34c275a56eba7a49fc"
  },
  {
    "no": 267,
    "name": "Feni-3",
    "booth": 684,
    "male": 161341,
    "female": 169903,
    "totvoter": 331244,
    "index": 0.926492253,
    "id": "54ed7b34c275a56eba7a49fd"
  },
  {
    "no": 268,
    "name": "Noakhali-1",
    "booth": 650,
    "male": 141717,
    "female": 149289,
    "totvoter": 291006,
    "index": 1.054600249,
    "id": "54ed7b34c275a56eba7a49fe"
  },
  {
    "no": 269,
    "name": "Noakhali-2",
    "booth": 479,
    "male": 111616,
    "female": 117934,
    "totvoter": 229550,
    "index": 1.336941843,
    "id": "54ed7b34c275a56eba7a49ff"
  },
  {
    "no": 270,
    "name": "Noakhali-3",
    "booth": 756,
    "male": 163725,
    "female": 165875,
    "totvoter": 329600,
    "index": 0.931113471,
    "id": "54ed7b34c275a56eba7a4a00"
  },
  {
    "no": 271,
    "name": "Noakhali-4",
    "booth": 837,
    "male": 210856,
    "female": 209131,
    "totvoter": 419987,
    "index": 0.730724999,
    "id": "54ed7b34c275a56eba7a4a01"
  },
  {
    "no": 272,
    "name": "Noakhali-5",
    "booth": 1348,
    "male": 309666,
    "female": 318680,
    "totvoter": 628346,
    "index": 0.48841721,
    "id": "54ed7b34c275a56eba7a4a02"
  },
  {
    "no": 273,
    "name": "Noakhali-6",
    "booth": 427,
    "male": 108807,
    "female": 106509,
    "totvoter": 215316,
    "index": 1.42532371,
    "id": "54ed7b34c275a56eba7a4a03"
  },
  {
    "no": 274,
    "name": "Laxmipur-1",
    "booth": 412,
    "male": 90995,
    "female": 94830,
    "totvoter": 185825,
    "index": 1.651526974,
    "id": "54ed7b34c275a56eba7a4a04"
  },
  {
    "no": 275,
    "name": "Laxmipur-2",
    "booth": 716,
    "male": 159905,
    "female": 164916,
    "totvoter": 324821,
    "index": 0.944812681,
    "id": "54ed7b34c275a56eba7a4a05"
  },
  {
    "no": 276,
    "name": "Laxmipur-3",
    "booth": 583,
    "male": 136484,
    "female": 137815,
    "totvoter": 274299,
    "index": 1.118833827,
    "id": "54ed7b34c275a56eba7a4a06"
  },
  {
    "no": 277,
    "name": "Laxmipur-4",
    "booth": 625,
    "male": 133330,
    "female": 133623,
    "totvoter": 266953,
    "index": 1.149621844,
    "id": "54ed7b34c275a56eba7a4a07"
  },
  {
    "no": 278,
    "name": "Chittagong-1",
    "booth": 570,
    "male": 134700,
    "female": 138134,
    "totvoter": 272834,
    "index": 1.124841479,
    "id": "54ed7b34c275a56eba7a4a08"
  },
  {
    "no": 279,
    "name": "Chittagong-2",
    "booth": 598,
    "male": 161386,
    "female": 164728,
    "totvoter": 326114,
    "index": 0.941066621,
    "id": "54ed7b34c275a56eba7a4a09"
  },
  {
    "no": 280,
    "name": "Chittagong-3",
    "booth": 360,
    "male": 84577,
    "female": 92295,
    "totvoter": 176872,
    "index": 1.735124836,
    "id": "54ed7b34c275a56eba7a4a0a"
  },
  {
    "no": 281,
    "name": "Chittagong-4",
    "booth": 674,
    "male": 186269,
    "female": 163820,
    "totvoter": 350089,
    "index": 0.876619945,
    "id": "54ed7b34c275a56eba7a4a0b"
  },
  {
    "no": 282,
    "name": "Chittagong-5",
    "booth": 706,
    "male": 193832,
    "female": 187408,
    "totvoter": 381240,
    "index": 0.804991606,
    "id": "54ed7b34c275a56eba7a4a0c"
  },
  {
    "no": 283,
    "name": "Chittagong-6",
    "booth": 455,
    "male": 119739,
    "female": 117213,
    "totvoter": 236952,
    "index": 1.295177926,
    "id": "54ed7b34c275a56eba7a4a0d"
  },
  {
    "no": 284,
    "name": "Chittagong-7",
    "booth": 447,
    "male": 115875,
    "female": 114870,
    "totvoter": 230745,
    "index": 1.330017985,
    "id": "54ed7b34c275a56eba7a4a0e"
  },
  {
    "no": 285,
    "name": "Chittagong-8",
    "booth": 788,
    "male": 218508,
    "female": 213108,
    "totvoter": 431616,
    "index": 0.711037126,
    "id": "54ed7b34c275a56eba7a4a0f"
  },
  {
    "no": 286,
    "name": "Chittagong-9",
    "booth": 680,
    "male": 192775,
    "female": 169722,
    "totvoter": 362497,
    "index": 0.846613903,
    "id": "54ed7b34c275a56eba7a4a10"
  },
  {
    "no": 287,
    "name": "Chittagong-10",
    "booth": 800,
    "male": 223109,
    "female": 207572,
    "totvoter": 430681,
    "index": 0.712580773,
    "id": "54ed7b34c275a56eba7a4a11"
  },
  {
    "no": 288,
    "name": "Chittagong-11",
    "booth": 900,
    "male": 250581,
    "female": 234398,
    "totvoter": 484979,
    "index": 0.632800595,
    "id": "54ed7b34c275a56eba7a4a12"
  },
  {
    "no": 289,
    "name": "Chittagong-12",
    "booth": 520,
    "male": 128520,
    "female": 120195,
    "totvoter": 248715,
    "index": 1.233922361,
    "id": "54ed7b34c275a56eba7a4a13"
  },
  {
    "no": 290,
    "name": "Chittagong-13",
    "booth": 575,
    "male": 140784,
    "female": 132103,
    "totvoter": 272887,
    "index": 1.124623012,
    "id": "54ed7b34c275a56eba7a4a14"
  },
  {
    "no": 291,
    "name": "Chittagong-14",
    "booth": 518,
    "male": 110425,
    "female": 105446,
    "totvoter": 215871,
    "index": 1.421659232,
    "id": "54ed7b34c275a56eba7a4a15"
  },
  {
    "no": 292,
    "name": "Chittagong-15",
    "booth": 716,
    "male": 170487,
    "female": 165635,
    "totvoter": 336122,
    "index": 0.913046453,
    "id": "54ed7b34c275a56eba7a4a16"
  },
  {
    "no": 293,
    "name": "Chittagong-16",
    "booth": 555,
    "male": 137505,
    "female": 131062,
    "totvoter": 268567,
    "index": 1.142712992,
    "id": "54ed7b34c275a56eba7a4a17"
  },
  {
    "no": 294,
    "name": "Cox's Bazar-1",
    "booth": 707,
    "male": 176259,
    "female": 168464,
    "totvoter": 344723,
    "index": 0.890265518,
    "id": "54ed7b34c275a56eba7a4a18"
  },
  {
    "no": 295,
    "name": "Cox's Bazar-2",
    "booth": 476,
    "male": 134698,
    "female": 127515,
    "totvoter": 262213,
    "index": 1.170403451,
    "id": "54ed7b34c275a56eba7a4a19"
  },
  {
    "no": 296,
    "name": "Cox's Bazar-3",
    "booth": 744,
    "male": 186102,
    "female": 176505,
    "totvoter": 362607,
    "index": 0.846357075,
    "id": "54ed7b34c275a56eba7a4a1a"
  },
  {
    "no": 297,
    "name": "Cox's Bazar-4",
    "booth": 459,
    "male": 115506,
    "female": 117605,
    "totvoter": 233111,
    "index": 1.31651874,
    "id": "54ed7b34c275a56eba7a4a1b"
  },
  {
    "no": 298,
    "name": "Khagrachari",
    "booth": 825,
    "male": 197824,
    "female": 184006,
    "totvoter": 381830,
    "index": 0.803747741,
    "id": "54ed7b34c275a56eba7a4a1c"
  },
  {
    "no": 299,
    "name": "Rangamati",
    "booth": 866,
    "male": 198683,
    "female": 172665,
    "totvoter": 371348,
    "index": 0.826435042,
    "id": "54ed7b34c275a56eba7a4a1d"
  },
  {
    "no": 300,
    "name": "Bandarban",
    "booth": 594,
    "male": 114283,
    "female": 102524,
    "totvoter": 216807,
    "index": 1.415521639,
    "id": "54ed7b34c275a56eba7a4a1e"
  }
]