{
"type": "FeatureCollection",
"crs": { "type": "name", "properties": { "name": "urn:ogc:def:crs:OGC:1.3:CRS84" } },
                                                                                
"features": [
{ "type": "Feature", "properties": { "district": "Bhola", "upazila": "Charfasson", "phase_1": null, "phase_2": 2, "phase_3": null, "Shape_Leng": 4.08787961921, "Shape_Area": 0.05714629264 }, "geometry": { "type": "Point", "coordinates": [ 90.693464080488994, 22.108594810692182 ] } },
{ "type": "Feature", "properties": { "district": "Bhola", "upazila": "Tazumuddin", "phase_1": null, "phase_2": 2, "phase_3": null, "Shape_Leng": 0.80035966334, "Shape_Area": 0.00587767988 }, "geometry": { "type": "Point", "coordinates": [ 90.837031049579792, 22.413836513476561 ] } },
{ "type": "Feature", "properties": { "district": "Chittagong", "upazila": "Banshkhali", "phase_1": null, "phase_2": 2, "phase_3": null, "Shape_Leng": 1.36615735284, "Shape_Area": 0.03783965291 }, "geometry": { "type": "Point", "coordinates": [ 91.934986439615315, 22.040370443737807 ] } },
{ "type": "Feature", "properties": { "district": "Chittagong", "upazila": "Chandanaish", "phase_1": null, "phase_2": 2, "phase_3": null, "Shape_Leng": 0.96855680604, "Shape_Area": 0.01938687995 }, "geometry": { "type": "Point", "coordinates": [ 92.068966687169336, 22.230879387674261 ] } },
{ "type": "Feature", "properties": { "district": "Chittagong", "upazila": "Fatikchhari", "phase_1": null, "phase_2": 2, "phase_3": null, "Shape_Leng": 1.60044002327, "Shape_Area": 0.06655288903 }, "geometry": { "type": "Point", "coordinates": [ 91.753856168364308, 22.758888411629432 ] } },
{ "type": "Feature", "properties": { "district": "Chittagong", "upazila": "Lohagara", "phase_1": null, "phase_2": 2, "phase_3": null, "Shape_Leng": 0.78270196102, "Shape_Area": 0.02030819672 }, "geometry": { "type": "Point", "coordinates": [ 92.117490794504434, 22.002281706611974 ] } },
{ "type": "Feature", "properties": { "district": "Chittagong", "upazila": "Sandwip", "phase_1": null, "phase_2": 2, "phase_3": null, "Shape_Leng": 0.73081950001, "Shape_Area": 0.02255405745 }, "geometry": { "type": "Point", "coordinates": [ 91.487539289942092, 22.492537305256839 ] } },
{ "type": "Feature", "properties": { "district": "Chittagong", "upazila": "Satkania", "phase_1": null, "phase_2": 2, "phase_3": null, "Shape_Leng": 1.28710684574, "Shape_Area": 0.0249825657 }, "geometry": { "type": "Point", "coordinates": [ 92.061797855329942, 22.119032074122806 ] } },
{ "type": "Feature", "properties": { "district": "Chittagong", "upazila": "Sitakunda", "phase_1": null, "phase_2": 2, "phase_3": null, "Shape_Leng": 0.88212912182, "Shape_Area": 0.01807358085 }, "geometry": { "type": "Point", "coordinates": [ 91.698106835752398, 22.541618055630131 ] } },
{ "type": "Feature", "properties": { "district": "Cox's Bazar", "upazila": "Chakaria", "phase_1": null, "phase_2": 2, "phase_3": null, "Shape_Leng": 2.18396311654, "Shape_Area": 0.0591429365 }, "geometry": { "type": "Point", "coordinates": [ 92.035535230096798, 21.76296621788364 ] } },
{ "type": "Feature", "properties": { "district": "Cox's Bazar", "upazila": "Teknaf", "phase_1": null, "phase_2": 2, "phase_3": null, "Shape_Leng": 1.47101436453, "Shape_Area": 0.02701923857 }, "geometry": { "type": "Point", "coordinates": [ 92.224246122140016, 20.995984927758432 ] } },
{ "type": "Feature", "properties": { "district": "Chandpur", "upazila": "Faridganj", "phase_1": null, "phase_2": 2, "phase_3": null, "Shape_Leng": 0.74167120613, "Shape_Area": 0.02056075668 }, "geometry": { "type": "Point", "coordinates": [ 90.765051249457883, 23.141520559046917 ] } },
{ "type": "Feature", "properties": { "district": "Chandpur", "upazila": "Haimchar", "phase_1": null, "phase_2": 2, "phase_3": null, "Shape_Leng": 0.39033538875, "Shape_Area": 0.00500575526 }, "geometry": { "type": "Point", "coordinates": [ 90.660323402549182, 23.063606321085992 ] } },
{ "type": "Feature", "properties": { "district": "Chandpur", "upazila": "Haziganj", "phase_1": null, "phase_2": 2, "phase_3": null, "Shape_Leng": 0.63576571586, "Shape_Area": 0.0141301097 }, "geometry": { "type": "Point", "coordinates": [ 90.829050832275357, 23.266699752915795 ] } },
{ "type": "Feature", "properties": { "district": "Chandpur", "upazila": "Shahrasti", "phase_1": null, "phase_2": 2, "phase_3": null, "Shape_Leng": 0.63879776818, "Shape_Area": 0.01656638269 }, "geometry": { "type": "Point", "coordinates": [ 90.94877594221866, 23.203705496655289 ] } },
{ "type": "Feature", "properties": { "district": "Comilla", "upazila": "Barura", "phase_1": null, "phase_2": 2, "phase_3": null, "Shape_Leng": 0.74846377918, "Shape_Area": 0.02187064049 }, "geometry": { "type": "Point", "coordinates": [ 91.043709325074559, 23.353886873305427 ] } },
{ "type": "Feature", "properties": { "district": "Comilla", "upazila": "Brahmanpara", "phase_1": null, "phase_2": 2, "phase_3": null, "Shape_Leng": 0.68621870935, "Shape_Area": 0.01117392044 }, "geometry": { "type": "Point", "coordinates": [ 91.108302409327422, 23.645745071503733 ] } },
{ "type": "Feature", "properties": { "district": "Comilla", "upazila": "Burichang", "phase_1": null, "phase_2": 2, "phase_3": null, "Shape_Leng": 0.62826670927, "Shape_Area": 0.0149920245 }, "geometry": { "type": "Point", "coordinates": [ 91.116223324133131, 23.532669027820035 ] } },
{ "type": "Feature", "properties": { "district": "Comilla", "upazila": "Chauddagram", "phase_1": null, "phase_2": 2, "phase_3": null, "Shape_Leng": 1.28400706034, "Shape_Area": 0.02423460148 }, "geometry": { "type": "Point", "coordinates": [ 91.285304946195339, 23.222381607399051 ] } },
{ "type": "Feature", "properties": { "district": "Comilla", "upazila": "Nangalkot", "phase_1": null, "phase_2": 2, "phase_3": null, "Shape_Leng": 0.96498065604, "Shape_Area": 0.02130940013 }, "geometry": { "type": "Point", "coordinates": [ 91.216377834414359, 23.135640893478303 ] } },
{ "type": "Feature", "properties": { "district": "Feni", "upazila": "Sonagazi", "phase_1": null, "phase_2": 2, "phase_3": null, "Shape_Leng": 0.97430618292, "Shape_Area": 0.01664644629 }, "geometry": { "type": "Point", "coordinates": [ 91.394137067391682, 22.857528848209565 ] } },
{ "type": "Feature", "properties": { "district": "Lakshmipur", "upazila": "Lakshmipur S.", "phase_1": null, "phase_2": 2, "phase_3": null, "Shape_Leng": 1.23802280265, "Shape_Area": 0.04198330084 }, "geometry": { "type": "Point", "coordinates": [ 90.868858541128276, 22.922708326636965 ] } },
{ "type": "Feature", "properties": { "district": "Noakhali", "upazila": "Begumganj", "phase_1": null, "phase_2": 2, "phase_3": null, "Shape_Leng": 0.99429869222, "Shape_Area": 0.03729492349 }, "geometry": { "type": "Point", "coordinates": [ 91.088397373365893, 22.969212938802233 ] } },
{ "type": "Feature", "properties": { "district": "Munshigonj", "upazila": "Sirajdikhan", "phase_1": null, "phase_2": 2, "phase_3": null, "Shape_Leng": 0.74744321778, "Shape_Area": 0.01550944878 }, "geometry": { "type": "Point", "coordinates": [ 90.359816140040664, 23.5995893011996 ] } },
{ "type": "Feature", "properties": { "district": "Munshigonj", "upazila": "Tongibari", "phase_1": null, "phase_2": 2, "phase_3": null, "Shape_Leng": 0.56345473854, "Shape_Area": 0.00977209885 }, "geometry": { "type": "Point", "coordinates": [ 90.457517843314349, 23.478530629007413 ] } }
]
}
