{
    "0": {
        "lat": 22.108594810692182,
        "lng": 90.693464080488994,
        "icon": {
            "type": "div",
            "iconSize": [20, 20],
            "html": "<b>*</b>",
            "popupAnchor": [0, 0]
        },
        "focus": false,
        "clickable": true,
        "draggable": false
    },
    "1": {
        "lat": 22.413836513476561,
        "lng": 90.837031049579792,
        "icon": {
            "type": "div",
            "iconSize": [20, 20],
            "html": "<b>*</b>",
            "popupAnchor": [0, 0]
        },
        "focus": false,
        "clickable": false,
        "draggable": false
    },
    "2": {
        "lat": 22.040370443737807,
        "lng": 91.934986439615315,
        "icon": {
            "type": "div",
            "iconSize": [20, 20],
            "html": "<b>*</b>",
            "popupAnchor": [0, 0]
        },
        "focus": false,
        "clickable": true,
        "draggable": false
    },
    "3": {
        "lat": 22.230879387674261,
        "lng": 92.068966687169336,
        "icon": {
            "type": "div",
            "iconSize": [20, 20],
            "html": "<b>*</b>",
            "popupAnchor": [0, 0]
        },
        "focus": false,
        "clickable": true,
        "draggable": false
    }
}
